^C:\USERS\ZVOXT\DOCUMENTS\CEXGINE\CHEAT ENGINE\LUA53\LUA53\SRC\WMAIN.C
C:\PROGRAM FILES (X86)\MICROSOFT SDKS\WINDOWS\V7.1A\INCLUDE\WINDOWS.H
C:\PROGRAM FILES (X86)\MICROSOFT SDKS\WINDOWS\V7.1A\INCLUDE\SDKDDKVER.H
C:\PROGRAM FILES (X86)\MICROSOFT VISUAL STUDIO 12.0\VC\INCLUDE\EXCPT.H
C:\PROGRAM FILES (X86)\MICROSOFT VISUAL STUDIO 12.0\VC\INCLUDE\CRTDEFS.H
C:\PROGRAM FILES (X86)\MICROSOFT VISUAL STUDIO 12.0\VC\INCLUDE\SAL.H
C:\PROGRAM FILES (X86)\MICROSOFT VISUAL STUDIO 12.0\VC\INCLUDE\CONCURRENCYSAL.H
C:\PROGRAM FILES (X86)\MICROSOFT VISUAL STUDIO 12.0\VC\INCLUDE\VADEFS.H
C:\PROGRAM FILES (X86)\MICROSOFT VISUAL STUDIO 12.0\VC\INCLUDE\STDARG.H
C:\PROGRAM FILES (X86)\MICROSOFT SDKS\WINDOWS\V7.1A\INCLUDE\WINDEF.H
C:\PROGRAM FILES (X86)\MICROSOFT SDKS\WINDOWS\V7.1A\INCLUDE\WINNT.H
C:\PROGRAM FILES (X86)\MICROSOFT VISUAL STUDIO 12.0\VC\INCLUDE\CTYPE.H
C:\PROGRAM FILES (X86)\MICROSOFT SDKS\WINDOWS\V7.1A\INCLUDE\SPECSTRINGS.H
C:\PROGRAM FILES (X86)\MICROSOFT SDKS\WINDOWS\V7.1A\INCLUDE\SAL_SUPP.H
C:\PROGRAM FILES (X86)\MICROSOFT SDKS\WINDOWS\V7.1A\INCLUDE\SPECSTRINGS_SUPP.H
C:\PROGRAM FILES (X86)\MICROSOFT SDKS\WINDOWS\V7.1A\INCLUDE\SPECSTRINGS_STRICT.H
C:\PROGRAM FILES (X86)\MICROSOFT SDKS\WINDOWS\V7.1A\INCLUDE\SPECSTRINGS_UNDEF.H
C:\PROGRAM FILES (X86)\MICROSOFT SDKS\WINDOWS\V7.1A\INCLUDE\DRIVERSPECS.H
C:\PROGRAM FILES (X86)\MICROSOFT SDKS\WINDOWS\V7.1A\INCLUDE\SDV_DRIVERSPECS.H
C:\PROGRAM FILES (X86)\MICROSOFT SDKS\WINDOWS\V7.1A\INCLUDE\KERNELSPECS.H
C:\PROGRAM FILES (X86)\MICROSOFT SDKS\WINDOWS\V7.1A\INCLUDE\BASETSD.H
C:\PROGRAM FILES (X86)\MICROSOFT SDKS\WINDOWS\V7.1A\INCLUDE\GUIDDEF.H
C:\PROGRAM FILES (X86)\MICROSOFT VISUAL STUDIO 12.0\VC\INCLUDE\STRING.H
C:\PROGRAM FILES (X86)\MICROSOFT SDKS\WINDOWS\V7.1A\INCLUDE\PSHPACK4.H
C:\PROGRAM FILES (X86)\MICROSOFT SDKS\WINDOWS\V7.1A\INCLUDE\POPPACK.H
C:\PROGRAM FILES (X86)\MICROSOFT SDKS\WINDOWS\V7.1A\INCLUDE\PSHPACK2.H
C:\PROGRAM FILES (X86)\MICROSOFT SDKS\WINDOWS\V7.1A\INCLUDE\PSHPACK8.H
C:\PROGRAM FILES (X86)\MICROSOFT SDKS\WINDOWS\V7.1A\INCLUDE\KTMTYPES.H
C:\PROGRAM FILES (X86)\MICROSOFT SDKS\WINDOWS\V7.1A\INCLUDE\WINBASE.H
C:\PROGRAM FILES (X86)\MICROSOFT SDKS\WINDOWS\V7.1A\INCLUDE\WINERROR.H
C:\PROGRAM FILES (X86)\MICROSOFT SDKS\WINDOWS\V7.1A\INCLUDE\WINGDI.H
C:\PROGRAM FILES (X86)\MICROSOFT SDKS\WINDOWS\V7.1A\INCLUDE\PSHPACK1.H
C:\PROGRAM FILES (X86)\MICROSOFT SDKS\WINDOWS\V7.1A\INCLUDE\WINUSER.H
C:\PROGRAM FILES (X86)\MICROSOFT SDKS\WINDOWS\V7.1A\INCLUDE\TVOUT.H
C:\PROGRAM FILES (X86)\MICROSOFT SDKS\WINDOWS\V7.1A\INCLUDE\WINNLS.H
C:\PROGRAM FILES (X86)\MICROSOFT SDKS\WINDOWS\V7.1A\INCLUDE\WINCON.H
C:\PROGRAM FILES (X86)\MICROSOFT SDKS\WINDOWS\V7.1A\INCLUDE\WINVER.H
C:\PROGRAM FILES (X86)\MICROSOFT SDKS\WINDOWS\V7.1A\INCLUDE\VERRSRC.H
C:\PROGRAM FILES (X86)\MICROSOFT SDKS\WINDOWS\V7.1A\INCLUDE\WINREG.H
C:\PROGRAM FILES (X86)\MICROSOFT SDKS\WINDOWS\V7.1A\INCLUDE\REASON.H
C:\PROGRAM FILES (X86)\MICROSOFT SDKS\WINDOWS\V7.1A\INCLUDE\WINNETWK.H
C:\PROGRAM FILES (X86)\MICROSOFT SDKS\WINDOWS\V7.1A\INCLUDE\WNNC.H
C:\PROGRAM FILES (X86)\MICROSOFT SDKS\WINDOWS\V7.1A\INCLUDE\CDERR.H
C:\PROGRAM FILES (X86)\MICROSOFT SDKS\WINDOWS\V7.1A\INCLUDE\DDE.H
C:\PROGRAM FILES (X86)\MICROSOFT SDKS\WINDOWS\V7.1A\INCLUDE\DDEML.H
C:\PROGRAM FILES (X86)\MICROSOFT SDKS\WINDOWS\V7.1A\INCLUDE\DLGS.H
C:\PROGRAM FILES (X86)\MICROSOFT SDKS\WINDOWS\V7.1A\INCLUDE\LZEXPAND.H
C:\PROGRAM FILES (X86)\MICROSOFT SDKS\WINDOWS\V7.1A\INCLUDE\MMSYSTEM.H
C:\PROGRAM FILES (X86)\MICROSOFT SDKS\WINDOWS\V7.1A\INCLUDE\NB30.H
C:\PROGRAM FILES (X86)\MICROSOFT SDKS\WINDOWS\V7.1A\INCLUDE\RPC.H
C:\PROGRAM FILES (X86)\MICROSOFT SDKS\WINDOWS\V7.1A\INCLUDE\RPCDCE.H
C:\PROGRAM FILES (X86)\MICROSOFT SDKS\WINDOWS\V7.1A\INCLUDE\RPCDCEP.H
C:\PROGRAM FILES (X86)\MICROSOFT SDKS\WINDOWS\V7.1A\INCLUDE\RPCNSI.H
C:\PROGRAM FILES (X86)\MICROSOFT SDKS\WINDOWS\V7.1A\INCLUDE\RPCNTERR.H
C:\PROGRAM FILES (X86)\MICROSOFT SDKS\WINDOWS\V7.1A\INCLUDE\RPCASYNC.H
C:\PROGRAM FILES (X86)\MICROSOFT SDKS\WINDOWS\V7.1A\INCLUDE\SHELLAPI.H
C:\PROGRAM FILES (X86)\MICROSOFT SDKS\WINDOWS\V7.1A\INCLUDE\WINPERF.H
C:\PROGRAM FILES (X86)\MICROSOFT SDKS\WINDOWS\V7.1A\INCLUDE\WINSOCK.H
C:\PROGRAM FILES (X86)\MICROSOFT SDKS\WINDOWS\V7.1A\INCLUDE\INADDR.H
C:\PROGRAM FILES (X86)\MICROSOFT SDKS\WINDOWS\V7.1A\INCLUDE\WINCRYPT.H
C:\PROGRAM FILES (X86)\MICROSOFT SDKS\WINDOWS\V7.1A\INCLUDE\BCRYPT.H
C:\PROGRAM FILES (X86)\MICROSOFT SDKS\WINDOWS\V7.1A\INCLUDE\NCRYPT.H
C:\PROGRAM FILES (X86)\MICROSOFT SDKS\WINDOWS\V7.1A\INCLUDE\WINEFS.H
C:\PROGRAM FILES (X86)\MICROSOFT SDKS\WINDOWS\V7.1A\INCLUDE\WINSCARD.H
C:\PROGRAM FILES (X86)\MICROSOFT SDKS\WINDOWS\V7.1A\INCLUDE\WTYPES.H
C:\PROGRAM FILES (X86)\MICROSOFT SDKS\WINDOWS\V7.1A\INCLUDE\RPCNDR.H
C:\PROGRAM FILES (X86)\MICROSOFT SDKS\WINDOWS\V7.1A\INCLUDE\RPCNSIP.H
C:\PROGRAM FILES (X86)\MICROSOFT SDKS\WINDOWS\V7.1A\INCLUDE\RPCSAL.H
C:\PROGRAM FILES (X86)\MICROSOFT SDKS\WINDOWS\V7.1A\INCLUDE\WINIOCTL.H
C:\PROGRAM FILES (X86)\MICROSOFT SDKS\WINDOWS\V7.1A\INCLUDE\WINSMCRD.H
C:\PROGRAM FILES (X86)\MICROSOFT SDKS\WINDOWS\V7.1A\INCLUDE\WINSPOOL.H
C:\PROGRAM FILES (X86)\MICROSOFT SDKS\WINDOWS\V7.1A\INCLUDE\PRSHT.H
C:\PROGRAM FILES (X86)\MICROSOFT SDKS\WINDOWS\V7.1A\INCLUDE\OLE2.H
C:\PROGRAM FILES (X86)\MICROSOFT SDKS\WINDOWS\V7.1A\INCLUDE\OBJBASE.H
C:\PROGRAM FILES (X86)\MICROSOFT VISUAL STUDIO 12.0\VC\INCLUDE\STDLIB.H
C:\PROGRAM FILES (X86)\MICROSOFT VISUAL STUDIO 12.0\VC\INCLUDE\LIMITS.H
C:\PROGRAM FILES (X86)\MICROSOFT SDKS\WINDOWS\V7.1A\INCLUDE\UNKNWN.H
C:\PROGRAM FILES (X86)\MICROSOFT SDKS\WINDOWS\V7.1A\INCLUDE\OBJIDL.H
C:\PROGRAM FILES (X86)\MICROSOFT SDKS\WINDOWS\V7.1A\INCLUDE\CGUID.H
C:\PROGRAM FILES (X86)\MICROSOFT SDKS\WINDOWS\V7.1A\INCLUDE\URLMON.H
C:\PROGRAM FILES (X86)\MICROSOFT SDKS\WINDOWS\V7.1A\INCLUDE\OLEIDL.H
C:\PROGRAM FILES (X86)\MICROSOFT SDKS\WINDOWS\V7.1A\INCLUDE\SERVPROV.H
C:\PROGRAM FILES (X86)\MICROSOFT SDKS\WINDOWS\V7.1A\INCLUDE\MSXML.H
C:\PROGRAM FILES (X86)\MICROSOFT SDKS\WINDOWS\V7.1A\INCLUDE\OAIDL.H
C:\PROGRAM FILES (X86)\MICROSOFT SDKS\WINDOWS\V7.1A\INCLUDE\PROPIDL.H
C:\PROGRAM FILES (X86)\MICROSOFT SDKS\WINDOWS\V7.1A\INCLUDE\OLEAUTO.H
C:\PROGRAM FILES (X86)\MICROSOFT SDKS\WINDOWS\V7.1A\INCLUDE\COMMDLG.H
C:\PROGRAM FILES (X86)\MICROSOFT SDKS\WINDOWS\V7.1A\INCLUDE\STRALIGN.H
C:\PROGRAM FILES (X86)\MICROSOFT SDKS\WINDOWS\V7.1A\INCLUDE\WINSVC.H
C:\PROGRAM FILES (X86)\MICROSOFT SDKS\WINDOWS\V7.1A\INCLUDE\MCX.H
C:\PROGRAM FILES (X86)\MICROSOFT SDKS\WINDOWS\V7.1A\INCLUDE\IMM.H
C:\PROGRAM FILES (X86)\MICROSOFT SDKS\WINDOWS\V7.1A\INCLUDE\IME_CMODES.H
^C:\USERS\ZVOXT\DOCUMENTS\CEXGINE\CHEAT ENGINE\LUA53\LUA53\SRC\LZIO.C
C:\USERS\ZVOXT\DOCUMENTS\CEXGINE\CHEAT ENGINE\LUA53\LUA53\SRC\LPREFIX.H
C:\PROGRAM FILES (X86)\MICROSOFT VISUAL STUDIO 12.0\VC\INCLUDE\STRING.H
C:\PROGRAM FILES (X86)\MICROSOFT VISUAL STUDIO 12.0\VC\INCLUDE\CRTDEFS.H
C:\PROGRAM FILES (X86)\MICROSOFT VISUAL STUDIO 12.0\VC\INCLUDE\SAL.H
C:\PROGRAM FILES (X86)\MICROSOFT VISUAL STUDIO 12.0\VC\INCLUDE\CONCURRENCYSAL.H
C:\PROGRAM FILES (X86)\MICROSOFT VISUAL STUDIO 12.0\VC\INCLUDE\VADEFS.H
C:\USERS\ZVOXT\DOCUMENTS\CEXGINE\CHEAT ENGINE\LUA53\LUA53\SRC\LUA.H
C:\PROGRAM FILES (X86)\MICROSOFT VISUAL STUDIO 12.0\VC\INCLUDE\STDARG.H
C:\PROGRAM FILES (X86)\MICROSOFT VISUAL STUDIO 12.0\VC\INCLUDE\STDDEF.H
C:\USERS\ZVOXT\DOCUMENTS\CEXGINE\CHEAT ENGINE\LUA53\LUA53\SRC\LUACONF.H
C:\PROGRAM FILES (X86)\MICROSOFT VISUAL STUDIO 12.0\VC\INCLUDE\LIMITS.H
C:\USERS\ZVOXT\DOCUMENTS\CEXGINE\CHEAT ENGINE\LUA53\LUA53\SRC\LUA_USER.H
C:\USERS\ZVOXT\DOCUMENTS\CEXGINE\CHEAT ENGINE\LUA53\LUA53\SRC\LLIMITS.H
C:\USERS\ZVOXT\DOCUMENTS\CEXGINE\CHEAT ENGINE\LUA53\LUA53\SRC\LMEM.H
C:\USERS\ZVOXT\DOCUMENTS\CEXGINE\CHEAT ENGINE\LUA53\LUA53\SRC\LSTATE.H
C:\USERS\ZVOXT\DOCUMENTS\CEXGINE\CHEAT ENGINE\LUA53\LUA53\SRC\LOBJECT.H
C:\USERS\ZVOXT\DOCUMENTS\CEXGINE\CHEAT ENGINE\LUA53\LUA53\SRC\LTM.H
C:\USERS\ZVOXT\DOCUMENTS\CEXGINE\CHEAT ENGINE\LUA53\LUA53\SRC\LZIO.H
^C:\USERS\ZVOXT\DOCUMENTS\CEXGINE\CHEAT ENGINE\LUA53\LUA53\SRC\LVM.C
C:\USERS\ZVOXT\DOCUMENTS\CEXGINE\CHEAT ENGINE\LUA53\LUA53\SRC\LPREFIX.H
C:\PROGRAM FILES (X86)\MICROSOFT VISUAL STUDIO 12.0\VC\INCLUDE\LIMITS.H
C:\PROGRAM FILES (X86)\MICROSOFT VISUAL STUDIO 12.0\VC\INCLUDE\CRTDEFS.H
C:\PROGRAM FILES (X86)\MICROSOFT VISUAL STUDIO 12.0\VC\INCLUDE\SAL.H
C:\PROGRAM FILES (X86)\MICROSOFT VISUAL STUDIO 12.0\VC\INCLUDE\CONCURRENCYSAL.H
C:\PROGRAM FILES (X86)\MICROSOFT VISUAL STUDIO 12.0\VC\INCLUDE\VADEFS.H
C:\PROGRAM FILES (X86)\MICROSOFT VISUAL STUDIO 12.0\VC\INCLUDE\STDIO.H
C:\PROGRAM FILES (X86)\MICROSOFT VISUAL STUDIO 12.0\VC\INCLUDE\SWPRINTF.INL
C:\PROGRAM FILES (X86)\MICROSOFT VISUAL STUDIO 12.0\VC\INCLUDE\STDLIB.H
C:\PROGRAM FILES (X86)\MICROSOFT VISUAL STUDIO 12.0\VC\INCLUDE\STRING.H
C:\USERS\ZVOXT\DOCUMENTS\CEXGINE\CHEAT ENGINE\LUA53\LUA53\SRC\LUA.H
C:\PROGRAM FILES (X86)\MICROSOFT VISUAL STUDIO 12.0\VC\INCLUDE\STDARG.H
C:\PROGRAM FILES (X86)\MICROSOFT VISUAL STUDIO 12.0\VC\INCLUDE\STDDEF.H
C:\USERS\ZVOXT\DOCUMENTS\CEXGINE\CHEAT ENGINE\LUA53\LUA53\SRC\LUACONF.H
C:\PROGRAM FILES (X86)\MICROSOFT VISUAL STUDIO 12.0\VC\INCLUDE\MATH.H
C:\USERS\ZVOXT\DOCUMENTS\CEXGINE\CHEAT ENGINE\LUA53\LUA53\SRC\LUA_USER.H
C:\USERS\ZVOXT\DOCUMENTS\CEXGINE\CHEAT ENGINE\LUA53\LUA53\SRC\LDEBUG.H
C:\USERS\ZVOXT\DOCUMENTS\CEXGINE\CHEAT ENGINE\LUA53\LUA53\SRC\LSTATE.H
C:\USERS\ZVOXT\DOCUMENTS\CEXGINE\CHEAT ENGINE\LUA53\LUA53\SRC\LOBJECT.H
C:\USERS\ZVOXT\DOCUMENTS\CEXGINE\CHEAT ENGINE\LUA53\LUA53\SRC\LLIMITS.H
C:\USERS\ZVOXT\DOCUMENTS\CEXGINE\CHEAT ENGINE\LUA53\LUA53\SRC\LTM.H
C:\USERS\ZVOXT\DOCUMENTS\CEXGINE\CHEAT ENGINE\LUA53\LUA53\SRC\LZIO.H
C:\USERS\ZVOXT\DOCUMENTS\CEXGINE\CHEAT ENGINE\LUA53\LUA53\SRC\LMEM.H
C:\USERS\ZVOXT\DOCUMENTS\CEXGINE\CHEAT ENGINE\LUA53\LUA53\SRC\LDO.H
C:\USERS\ZVOXT\DOCUMENTS\CEXGINE\CHEAT ENGINE\LUA53\LUA53\SRC\LFUNC.H
C:\USERS\ZVOXT\DOCUMENTS\CEXGINE\CHEAT ENGINE\LUA53\LUA53\SRC\LGC.H
C:\USERS\ZVOXT\DOCUMENTS\CEXGINE\CHEAT ENGINE\LUA53\LUA53\SRC\LOPCODES.H
C:\USERS\ZVOXT\DOCUMENTS\CEXGINE\CHEAT ENGINE\LUA53\LUA53\SRC\LSTRING.H
C:\USERS\ZVOXT\DOCUMENTS\CEXGINE\CHEAT ENGINE\LUA53\LUA53\SRC\LTABLE.H
C:\USERS\ZVOXT\DOCUMENTS\CEXGINE\CHEAT ENGINE\LUA53\LUA53\SRC\LVM.H
^C:\USERS\ZVOXT\DOCUMENTS\CEXGINE\CHEAT ENGINE\LUA53\LUA53\SRC\LUTF8LIB.C
C:\USERS\ZVOXT\DOCUMENTS\CEXGINE\CHEAT ENGINE\LUA53\LUA53\SRC\LPREFIX.H
C:\PROGRAM FILES (X86)\MICROSOFT VISUAL STUDIO 12.0\VC\INCLUDE\ASSERT.H
C:\PROGRAM FILES (X86)\MICROSOFT VISUAL STUDIO 12.0\VC\INCLUDE\CRTDEFS.H
C:\PROGRAM FILES (X86)\MICROSOFT VISUAL STUDIO 12.0\VC\INCLUDE\SAL.H
C:\PROGRAM FILES (X86)\MICROSOFT VISUAL STUDIO 12.0\VC\INCLUDE\CONCURRENCYSAL.H
C:\PROGRAM FILES (X86)\MICROSOFT VISUAL STUDIO 12.0\VC\INCLUDE\VADEFS.H
C:\PROGRAM FILES (X86)\MICROSOFT VISUAL STUDIO 12.0\VC\INCLUDE\STDLIB.H
C:\PROGRAM FILES (X86)\MICROSOFT VISUAL STUDIO 12.0\VC\INCLUDE\LIMITS.H
C:\PROGRAM FILES (X86)\MICROSOFT VISUAL STUDIO 12.0\VC\INCLUDE\STRING.H
C:\USERS\ZVOXT\DOCUMENTS\CEXGINE\CHEAT ENGINE\LUA53\LUA53\SRC\LUA.H
C:\PROGRAM FILES (X86)\MICROSOFT VISUAL STUDIO 12.0\VC\INCLUDE\STDARG.H
C:\PROGRAM FILES (X86)\MICROSOFT VISUAL STUDIO 12.0\VC\INCLUDE\STDDEF.H
C:\USERS\ZVOXT\DOCUMENTS\CEXGINE\CHEAT ENGINE\LUA53\LUA53\SRC\LUACONF.H
C:\USERS\ZVOXT\DOCUMENTS\CEXGINE\CHEAT ENGINE\LUA53\LUA53\SRC\LUA_USER.H
C:\USERS\ZVOXT\DOCUMENTS\CEXGINE\CHEAT ENGINE\LUA53\LUA53\SRC\LAUXLIB.H
C:\PROGRAM FILES (X86)\MICROSOFT VISUAL STUDIO 12.0\VC\INCLUDE\STDIO.H
C:\PROGRAM FILES (X86)\MICROSOFT VISUAL STUDIO 12.0\VC\INCLUDE\SWPRINTF.INL
C:\USERS\ZVOXT\DOCUMENTS\CEXGINE\CHEAT ENGINE\LUA53\LUA53\SRC\LUALIB.H
^C:\USERS\ZVOXT\DOCUMENTS\CEXGINE\CHEAT ENGINE\LUA53\LUA53\SRC\LUNDUMP.C
C:\USERS\ZVOXT\DOCUMENTS\CEXGINE\CHEAT ENGINE\LUA53\LUA53\SRC\LPREFIX.H
C:\PROGRAM FILES (X86)\MICROSOFT VISUAL STUDIO 12.0\VC\INCLUDE\STRING.H
C:\PROGRAM FILES (X86)\MICROSOFT VISUAL STUDIO 12.0\VC\INCLUDE\CRTDEFS.H
C:\PROGRAM FILES (X86)\MICROSOFT VISUAL STUDIO 12.0\VC\INCLUDE\SAL.H
C:\PROGRAM FILES (X86)\MICROSOFT VISUAL STUDIO 12.0\VC\INCLUDE\CONCURRENCYSAL.H
C:\PROGRAM FILES (X86)\MICROSOFT VISUAL STUDIO 12.0\VC\INCLUDE\VADEFS.H
C:\USERS\ZVOXT\DOCUMENTS\CEXGINE\CHEAT ENGINE\LUA53\LUA53\SRC\LUA.H
C:\PROGRAM FILES (X86)\MICROSOFT VISUAL STUDIO 12.0\VC\INCLUDE\STDARG.H
C:\PROGRAM FILES (X86)\MICROSOFT VISUAL STUDIO 12.0\VC\INCLUDE\STDDEF.H
C:\USERS\ZVOXT\DOCUMENTS\CEXGINE\CHEAT ENGINE\LUA53\LUA53\SRC\LUACONF.H
C:\PROGRAM FILES (X86)\MICROSOFT VISUAL STUDIO 12.0\VC\INCLUDE\LIMITS.H
C:\USERS\ZVOXT\DOCUMENTS\CEXGINE\CHEAT ENGINE\LUA53\LUA53\SRC\LUA_USER.H
C:\USERS\ZVOXT\DOCUMENTS\CEXGINE\CHEAT ENGINE\LUA53\LUA53\SRC\LDEBUG.H
C:\USERS\ZVOXT\DOCUMENTS\CEXGINE\CHEAT ENGINE\LUA53\LUA53\SRC\LSTATE.H
C:\USERS\ZVOXT\DOCUMENTS\CEXGINE\CHEAT ENGINE\LUA53\LUA53\SRC\LOBJECT.H
C:\USERS\ZVOXT\DOCUMENTS\CEXGINE\CHEAT ENGINE\LUA53\LUA53\SRC\LLIMITS.H
C:\USERS\ZVOXT\DOCUMENTS\CEXGINE\CHEAT ENGINE\LUA53\LUA53\SRC\LTM.H
C:\USERS\ZVOXT\DOCUMENTS\CEXGINE\CHEAT ENGINE\LUA53\LUA53\SRC\LZIO.H
C:\USERS\ZVOXT\DOCUMENTS\CEXGINE\CHEAT ENGINE\LUA53\LUA53\SRC\LMEM.H
C:\USERS\ZVOXT\DOCUMENTS\CEXGINE\CHEAT ENGINE\LUA53\LUA53\SRC\LDO.H
C:\USERS\ZVOXT\DOCUMENTS\CEXGINE\CHEAT ENGINE\LUA53\LUA53\SRC\LFUNC.H
C:\USERS\ZVOXT\DOCUMENTS\CEXGINE\CHEAT ENGINE\LUA53\LUA53\SRC\LSTRING.H
C:\USERS\ZVOXT\DOCUMENTS\CEXGINE\CHEAT ENGINE\LUA53\LUA53\SRC\LGC.H
C:\USERS\ZVOXT\DOCUMENTS\CEXGINE\CHEAT ENGINE\LUA53\LUA53\SRC\LUNDUMP.H
^C:\USERS\ZVOXT\DOCUMENTS\CEXGINE\CHEAT ENGINE\LUA53\LUA53\SRC\LUA_USER.C
C:\PROGRAM FILES (X86)\MICROSOFT SDKS\WINDOWS\V7.1A\INCLUDE\WINDOWS.H
C:\PROGRAM FILES (X86)\MICROSOFT SDKS\WINDOWS\V7.1A\INCLUDE\SDKDDKVER.H
C:\PROGRAM FILES (X86)\MICROSOFT VISUAL STUDIO 12.0\VC\INCLUDE\EXCPT.H
C:\PROGRAM FILES (X86)\MICROSOFT VISUAL STUDIO 12.0\VC\INCLUDE\CRTDEFS.H
C:\PROGRAM FILES (X86)\MICROSOFT VISUAL STUDIO 12.0\VC\INCLUDE\SAL.H
C:\PROGRAM FILES (X86)\MICROSOFT VISUAL STUDIO 12.0\VC\INCLUDE\CONCURRENCYSAL.H
C:\PROGRAM FILES (X86)\MICROSOFT VISUAL STUDIO 12.0\VC\INCLUDE\VADEFS.H
C:\PROGRAM FILES (X86)\MICROSOFT VISUAL STUDIO 12.0\VC\INCLUDE\STDARG.H
C:\PROGRAM FILES (X86)\MICROSOFT SDKS\WINDOWS\V7.1A\INCLUDE\WINDEF.H
C:\PROGRAM FILES (X86)\MICROSOFT SDKS\WINDOWS\V7.1A\INCLUDE\WINNT.H
C:\PROGRAM FILES (X86)\MICROSOFT VISUAL STUDIO 12.0\VC\INCLUDE\CTYPE.H
C:\PROGRAM FILES (X86)\MICROSOFT SDKS\WINDOWS\V7.1A\INCLUDE\SPECSTRINGS.H
C:\PROGRAM FILES (X86)\MICROSOFT SDKS\WINDOWS\V7.1A\INCLUDE\SAL_SUPP.H
C:\PROGRAM FILES (X86)\MICROSOFT SDKS\WINDOWS\V7.1A\INCLUDE\SPECSTRINGS_SUPP.H
C:\PROGRAM FILES (X86)\MICROSOFT SDKS\WINDOWS\V7.1A\INCLUDE\SPECSTRINGS_STRICT.H
C:\PROGRAM FILES (X86)\MICROSOFT SDKS\WINDOWS\V7.1A\INCLUDE\SPECSTRINGS_UNDEF.H
C:\PROGRAM FILES (X86)\MICROSOFT SDKS\WINDOWS\V7.1A\INCLUDE\DRIVERSPECS.H
C:\PROGRAM FILES (X86)\MICROSOFT SDKS\WINDOWS\V7.1A\INCLUDE\SDV_DRIVERSPECS.H
C:\PROGRAM FILES (X86)\MICROSOFT SDKS\WINDOWS\V7.1A\INCLUDE\KERNELSPECS.H
C:\PROGRAM FILES (X86)\MICROSOFT SDKS\WINDOWS\V7.1A\INCLUDE\BASETSD.H
C:\PROGRAM FILES (X86)\MICROSOFT SDKS\WINDOWS\V7.1A\INCLUDE\GUIDDEF.H
C:\PROGRAM FILES (X86)\MICROSOFT VISUAL STUDIO 12.0\VC\INCLUDE\STRING.H
C:\PROGRAM FILES (X86)\MICROSOFT SDKS\WINDOWS\V7.1A\INCLUDE\PSHPACK4.H
C:\PROGRAM FILES (X86)\MICROSOFT SDKS\WINDOWS\V7.1A\INCLUDE\POPPACK.H
C:\PROGRAM FILES (X86)\MICROSOFT SDKS\WINDOWS\V7.1A\INCLUDE\PSHPACK2.H
C:\PROGRAM FILES (X86)\MICROSOFT SDKS\WINDOWS\V7.1A\INCLUDE\PSHPACK8.H
C:\PROGRAM FILES (X86)\MICROSOFT SDKS\WINDOWS\V7.1A\INCLUDE\KTMTYPES.H
C:\PROGRAM FILES (X86)\MICROSOFT SDKS\WINDOWS\V7.1A\INCLUDE\WINBASE.H
C:\PROGRAM FILES (X86)\MICROSOFT SDKS\WINDOWS\V7.1A\INCLUDE\WINERROR.H
C:\PROGRAM FILES (X86)\MICROSOFT SDKS\WINDOWS\V7.1A\INCLUDE\WINGDI.H
C:\PROGRAM FILES (X86)\MICROSOFT SDKS\WINDOWS\V7.1A\INCLUDE\PSHPACK1.H
C:\PROGRAM FILES (X86)\MICROSOFT SDKS\WINDOWS\V7.1A\INCLUDE\WINUSER.H
C:\PROGRAM FILES (X86)\MICROSOFT SDKS\WINDOWS\V7.1A\INCLUDE\TVOUT.H
C:\PROGRAM FILES (X86)\MICROSOFT SDKS\WINDOWS\V7.1A\INCLUDE\WINNLS.H
C:\PROGRAM FILES (X86)\MICROSOFT SDKS\WINDOWS\V7.1A\INCLUDE\WINCON.H
C:\PROGRAM FILES (X86)\MICROSOFT SDKS\WINDOWS\V7.1A\INCLUDE\WINVER.H
C:\PROGRAM FILES (X86)\MICROSOFT SDKS\WINDOWS\V7.1A\INCLUDE\VERRSRC.H
C:\PROGRAM FILES (X86)\MICROSOFT SDKS\WINDOWS\V7.1A\INCLUDE\WINREG.H
C:\PROGRAM FILES (X86)\MICROSOFT SDKS\WINDOWS\V7.1A\INCLUDE\REASON.H
C:\PROGRAM FILES (X86)\MICROSOFT SDKS\WINDOWS\V7.1A\INCLUDE\WINNETWK.H
C:\PROGRAM FILES (X86)\MICROSOFT SDKS\WINDOWS\V7.1A\INCLUDE\WNNC.H
C:\PROGRAM FILES (X86)\MICROSOFT SDKS\WINDOWS\V7.1A\INCLUDE\CDERR.H
C:\PROGRAM FILES (X86)\MICROSOFT SDKS\WINDOWS\V7.1A\INCLUDE\DDE.H
C:\PROGRAM FILES (X86)\MICROSOFT SDKS\WINDOWS\V7.1A\INCLUDE\DDEML.H
C:\PROGRAM FILES (X86)\MICROSOFT SDKS\WINDOWS\V7.1A\INCLUDE\DLGS.H
C:\PROGRAM FILES (X86)\MICROSOFT SDKS\WINDOWS\V7.1A\INCLUDE\LZEXPAND.H
C:\PROGRAM FILES (X86)\MICROSOFT SDKS\WINDOWS\V7.1A\INCLUDE\MMSYSTEM.H
C:\PROGRAM FILES (X86)\MICROSOFT SDKS\WINDOWS\V7.1A\INCLUDE\NB30.H
C:\PROGRAM FILES (X86)\MICROSOFT SDKS\WINDOWS\V7.1A\INCLUDE\RPC.H
C:\PROGRAM FILES (X86)\MICROSOFT SDKS\WINDOWS\V7.1A\INCLUDE\RPCDCE.H
C:\PROGRAM FILES (X86)\MICROSOFT SDKS\WINDOWS\V7.1A\INCLUDE\RPCDCEP.H
C:\PROGRAM FILES (X86)\MICROSOFT SDKS\WINDOWS\V7.1A\INCLUDE\RPCNSI.H
C:\PROGRAM FILES (X86)\MICROSOFT SDKS\WINDOWS\V7.1A\INCLUDE\RPCNTERR.H
C:\PROGRAM FILES (X86)\MICROSOFT SDKS\WINDOWS\V7.1A\INCLUDE\RPCASYNC.H
C:\PROGRAM FILES (X86)\MICROSOFT SDKS\WINDOWS\V7.1A\INCLUDE\SHELLAPI.H
C:\PROGRAM FILES (X86)\MICROSOFT SDKS\WINDOWS\V7.1A\INCLUDE\WINPERF.H
C:\PROGRAM FILES (X86)\MICROSOFT SDKS\WINDOWS\V7.1A\INCLUDE\WINSOCK.H
C:\PROGRAM FILES (X86)\MICROSOFT SDKS\WINDOWS\V7.1A\INCLUDE\INADDR.H
C:\PROGRAM FILES (X86)\MICROSOFT SDKS\WINDOWS\V7.1A\INCLUDE\WINCRYPT.H
C:\PROGRAM FILES (X86)\MICROSOFT SDKS\WINDOWS\V7.1A\INCLUDE\BCRYPT.H
C:\PROGRAM FILES (X86)\MICROSOFT SDKS\WINDOWS\V7.1A\INCLUDE\NCRYPT.H
C:\PROGRAM FILES (X86)\MICROSOFT SDKS\WINDOWS\V7.1A\INCLUDE\WINEFS.H
C:\PROGRAM FILES (X86)\MICROSOFT SDKS\WINDOWS\V7.1A\INCLUDE\WINSCARD.H
C:\PROGRAM FILES (X86)\MICROSOFT SDKS\WINDOWS\V7.1A\INCLUDE\WTYPES.H
C:\PROGRAM FILES (X86)\MICROSOFT SDKS\WINDOWS\V7.1A\INCLUDE\RPCNDR.H
C:\PROGRAM FILES (X86)\MICROSOFT SDKS\WINDOWS\V7.1A\INCLUDE\RPCNSIP.H
C:\PROGRAM FILES (X86)\MICROSOFT SDKS\WINDOWS\V7.1A\INCLUDE\RPCSAL.H
C:\PROGRAM FILES (X86)\MICROSOFT SDKS\WINDOWS\V7.1A\INCLUDE\WINIOCTL.H
C:\PROGRAM FILES (X86)\MICROSOFT SDKS\WINDOWS\V7.1A\INCLUDE\WINSMCRD.H
C:\PROGRAM FILES (X86)\MICROSOFT SDKS\WINDOWS\V7.1A\INCLUDE\WINSPOOL.H
C:\PROGRAM FILES (X86)\MICROSOFT SDKS\WINDOWS\V7.1A\INCLUDE\PRSHT.H
C:\PROGRAM FILES (X86)\MICROSOFT SDKS\WINDOWS\V7.1A\INCLUDE\OLE2.H
C:\PROGRAM FILES (X86)\MICROSOFT SDKS\WINDOWS\V7.1A\INCLUDE\OBJBASE.H
C:\PROGRAM FILES (X86)\MICROSOFT VISUAL STUDIO 12.0\VC\INCLUDE\STDLIB.H
C:\PROGRAM FILES (X86)\MICROSOFT VISUAL STUDIO 12.0\VC\INCLUDE\LIMITS.H
C:\PROGRAM FILES (X86)\MICROSOFT SDKS\WINDOWS\V7.1A\INCLUDE\UNKNWN.H
C:\PROGRAM FILES (X86)\MICROSOFT SDKS\WINDOWS\V7.1A\INCLUDE\OBJIDL.H
C:\PROGRAM FILES (X86)\MICROSOFT SDKS\WINDOWS\V7.1A\INCLUDE\CGUID.H
C:\PROGRAM FILES (X86)\MICROSOFT SDKS\WINDOWS\V7.1A\INCLUDE\URLMON.H
C:\PROGRAM FILES (X86)\MICROSOFT SDKS\WINDOWS\V7.1A\INCLUDE\OLEIDL.H
C:\PROGRAM FILES (X86)\MICROSOFT SDKS\WINDOWS\V7.1A\INCLUDE\SERVPROV.H
C:\PROGRAM FILES (X86)\MICROSOFT SDKS\WINDOWS\V7.1A\INCLUDE\MSXML.H
C:\PROGRAM FILES (X86)\MICROSOFT SDKS\WINDOWS\V7.1A\INCLUDE\OAIDL.H
C:\PROGRAM FILES (X86)\MICROSOFT SDKS\WINDOWS\V7.1A\INCLUDE\PROPIDL.H
C:\PROGRAM FILES (X86)\MICROSOFT SDKS\WINDOWS\V7.1A\INCLUDE\OLEAUTO.H
C:\PROGRAM FILES (X86)\MICROSOFT SDKS\WINDOWS\V7.1A\INCLUDE\COMMDLG.H
C:\PROGRAM FILES (X86)\MICROSOFT SDKS\WINDOWS\V7.1A\INCLUDE\STRALIGN.H
C:\PROGRAM FILES (X86)\MICROSOFT SDKS\WINDOWS\V7.1A\INCLUDE\WINSVC.H
C:\PROGRAM FILES (X86)\MICROSOFT SDKS\WINDOWS\V7.1A\INCLUDE\MCX.H
C:\PROGRAM FILES (X86)\MICROSOFT SDKS\WINDOWS\V7.1A\INCLUDE\IMM.H
C:\PROGRAM FILES (X86)\MICROSOFT SDKS\WINDOWS\V7.1A\INCLUDE\IME_CMODES.H
C:\USERS\ZVOXT\DOCUMENTS\CEXGINE\CHEAT ENGINE\LUA53\LUA53\SRC\LUA.H
C:\PROGRAM FILES (X86)\MICROSOFT VISUAL STUDIO 12.0\VC\INCLUDE\STDDEF.H
C:\USERS\ZVOXT\DOCUMENTS\CEXGINE\CHEAT ENGINE\LUA53\LUA53\SRC\LUACONF.H
C:\USERS\ZVOXT\DOCUMENTS\CEXGINE\CHEAT ENGINE\LUA53\LUA53\SRC\LUA_USER.H
C:\USERS\ZVOXT\DOCUMENTS\CEXGINE\CHEAT ENGINE\LUA53\LUA53\SRC\LSTATE.H
C:\USERS\ZVOXT\DOCUMENTS\CEXGINE\CHEAT ENGINE\LUA53\LUA53\SRC\LOBJECT.H
C:\USERS\ZVOXT\DOCUMENTS\CEXGINE\CHEAT ENGINE\LUA53\LUA53\SRC\LLIMITS.H
C:\USERS\ZVOXT\DOCUMENTS\CEXGINE\CHEAT ENGINE\LUA53\LUA53\SRC\LTM.H
C:\USERS\ZVOXT\DOCUMENTS\CEXGINE\CHEAT ENGINE\LUA53\LUA53\SRC\LZIO.H
C:\USERS\ZVOXT\DOCUMENTS\CEXGINE\CHEAT ENGINE\LUA53\LUA53\SRC\LMEM.H
^C:\USERS\ZVOXT\DOCUMENTS\CEXGINE\CHEAT ENGINE\LUA53\LUA53\SRC\LUAC.C
C:\USERS\ZVOXT\DOCUMENTS\CEXGINE\CHEAT ENGINE\LUA53\LUA53\SRC\LPREFIX.H
C:\PROGRAM FILES (X86)\MICROSOFT VISUAL STUDIO 12.0\VC\INCLUDE\CTYPE.H
C:\PROGRAM FILES (X86)\MICROSOFT VISUAL STUDIO 12.0\VC\INCLUDE\CRTDEFS.H
C:\PROGRAM FILES (X86)\MICROSOFT VISUAL STUDIO 12.0\VC\INCLUDE\SAL.H
C:\PROGRAM FILES (X86)\MICROSOFT VISUAL STUDIO 12.0\VC\INCLUDE\CONCURRENCYSAL.H
C:\PROGRAM FILES (X86)\MICROSOFT VISUAL STUDIO 12.0\VC\INCLUDE\VADEFS.H
C:\PROGRAM FILES (X86)\MICROSOFT VISUAL STUDIO 12.0\VC\INCLUDE\ERRNO.H
C:\PROGRAM FILES (X86)\MICROSOFT VISUAL STUDIO 12.0\VC\INCLUDE\STDIO.H
C:\PROGRAM FILES (X86)\MICROSOFT VISUAL STUDIO 12.0\VC\INCLUDE\SWPRINTF.INL
C:\PROGRAM FILES (X86)\MICROSOFT VISUAL STUDIO 12.0\VC\INCLUDE\STDLIB.H
C:\PROGRAM FILES (X86)\MICROSOFT VISUAL STUDIO 12.0\VC\INCLUDE\LIMITS.H
C:\PROGRAM FILES (X86)\MICROSOFT VISUAL STUDIO 12.0\VC\INCLUDE\STRING.H
C:\USERS\ZVOXT\DOCUMENTS\CEXGINE\CHEAT ENGINE\LUA53\LUA53\SRC\LUA.H
C:\PROGRAM FILES (X86)\MICROSOFT VISUAL STUDIO 12.0\VC\INCLUDE\STDARG.H
C:\PROGRAM FILES (X86)\MICROSOFT VISUAL STUDIO 12.0\VC\INCLUDE\STDDEF.H
C:\USERS\ZVOXT\DOCUMENTS\CEXGINE\CHEAT ENGINE\LUA53\LUA53\SRC\LUACONF.H
C:\USERS\ZVOXT\DOCUMENTS\CEXGINE\CHEAT ENGINE\LUA53\LUA53\SRC\LUA_USER.H
C:\USERS\ZVOXT\DOCUMENTS\CEXGINE\CHEAT ENGINE\LUA53\LUA53\SRC\LAUXLIB.H
C:\USERS\ZVOXT\DOCUMENTS\CEXGINE\CHEAT ENGINE\LUA53\LUA53\SRC\LOBJECT.H
C:\USERS\ZVOXT\DOCUMENTS\CEXGINE\CHEAT ENGINE\LUA53\LUA53\SRC\LLIMITS.H
C:\USERS\ZVOXT\DOCUMENTS\CEXGINE\CHEAT ENGINE\LUA53\LUA53\SRC\LSTATE.H
C:\USERS\ZVOXT\DOCUMENTS\CEXGINE\CHEAT ENGINE\LUA53\LUA53\SRC\LTM.H
C:\USERS\ZVOXT\DOCUMENTS\CEXGINE\CHEAT ENGINE\LUA53\LUA53\SRC\LZIO.H
C:\USERS\ZVOXT\DOCUMENTS\CEXGINE\CHEAT ENGINE\LUA53\LUA53\SRC\LMEM.H
C:\USERS\ZVOXT\DOCUMENTS\CEXGINE\CHEAT ENGINE\LUA53\LUA53\SRC\LUNDUMP.H
C:\USERS\ZVOXT\DOCUMENTS\CEXGINE\CHEAT ENGINE\LUA53\LUA53\SRC\LDEBUG.H
C:\USERS\ZVOXT\DOCUMENTS\CEXGINE\CHEAT ENGINE\LUA53\LUA53\SRC\LOPCODES.H
^C:\USERS\ZVOXT\DOCUMENTS\CEXGINE\CHEAT ENGINE\LUA53\LUA53\SRC\LTM.C
C:\USERS\ZVOXT\DOCUMENTS\CEXGINE\CHEAT ENGINE\LUA53\LUA53\SRC\LPREFIX.H
C:\PROGRAM FILES (X86)\MICROSOFT VISUAL STUDIO 12.0\VC\INCLUDE\STRING.H
C:\PROGRAM FILES (X86)\MICROSOFT VISUAL STUDIO 12.0\VC\INCLUDE\CRTDEFS.H
C:\PROGRAM FILES (X86)\MICROSOFT VISUAL STUDIO 12.0\VC\INCLUDE\SAL.H
C:\PROGRAM FILES (X86)\MICROSOFT VISUAL STUDIO 12.0\VC\INCLUDE\CONCURRENCYSAL.H
C:\PROGRAM FILES (X86)\MICROSOFT VISUAL STUDIO 12.0\VC\INCLUDE\VADEFS.H
C:\USERS\ZVOXT\DOCUMENTS\CEXGINE\CHEAT ENGINE\LUA53\LUA53\SRC\LUA.H
C:\PROGRAM FILES (X86)\MICROSOFT VISUAL STUDIO 12.0\VC\INCLUDE\STDARG.H
C:\PROGRAM FILES (X86)\MICROSOFT VISUAL STUDIO 12.0\VC\INCLUDE\STDDEF.H
C:\USERS\ZVOXT\DOCUMENTS\CEXGINE\CHEAT ENGINE\LUA53\LUA53\SRC\LUACONF.H
C:\PROGRAM FILES (X86)\MICROSOFT VISUAL STUDIO 12.0\VC\INCLUDE\LIMITS.H
C:\USERS\ZVOXT\DOCUMENTS\CEXGINE\CHEAT ENGINE\LUA53\LUA53\SRC\LUA_USER.H
C:\USERS\ZVOXT\DOCUMENTS\CEXGINE\CHEAT ENGINE\LUA53\LUA53\SRC\LDEBUG.H
C:\USERS\ZVOXT\DOCUMENTS\CEXGINE\CHEAT ENGINE\LUA53\LUA53\SRC\LSTATE.H
C:\USERS\ZVOXT\DOCUMENTS\CEXGINE\CHEAT ENGINE\LUA53\LUA53\SRC\LOBJECT.H
C:\USERS\ZVOXT\DOCUMENTS\CEXGINE\CHEAT ENGINE\LUA53\LUA53\SRC\LLIMITS.H
C:\USERS\ZVOXT\DOCUMENTS\CEXGINE\CHEAT ENGINE\LUA53\LUA53\SRC\LTM.H
C:\USERS\ZVOXT\DOCUMENTS\CEXGINE\CHEAT ENGINE\LUA53\LUA53\SRC\LZIO.H
C:\USERS\ZVOXT\DOCUMENTS\CEXGINE\CHEAT ENGINE\LUA53\LUA53\SRC\LMEM.H
C:\USERS\ZVOXT\DOCUMENTS\CEXGINE\CHEAT ENGINE\LUA53\LUA53\SRC\LDO.H
C:\USERS\ZVOXT\DOCUMENTS\CEXGINE\CHEAT ENGINE\LUA53\LUA53\SRC\LSTRING.H
C:\USERS\ZVOXT\DOCUMENTS\CEXGINE\CHEAT ENGINE\LUA53\LUA53\SRC\LGC.H
C:\USERS\ZVOXT\DOCUMENTS\CEXGINE\CHEAT ENGINE\LUA53\LUA53\SRC\LTABLE.H
C:\USERS\ZVOXT\DOCUMENTS\CEXGINE\CHEAT ENGINE\LUA53\LUA53\SRC\LVM.H
^C:\USERS\ZVOXT\DOCUMENTS\CEXGINE\CHEAT ENGINE\LUA53\LUA53\SRC\LTABLIB.C
C:\USERS\ZVOXT\DOCUMENTS\CEXGINE\CHEAT ENGINE\LUA53\LUA53\SRC\LPREFIX.H
C:\PROGRAM FILES (X86)\MICROSOFT VISUAL STUDIO 12.0\VC\INCLUDE\LIMITS.H
C:\PROGRAM FILES (X86)\MICROSOFT VISUAL STUDIO 12.0\VC\INCLUDE\CRTDEFS.H
C:\PROGRAM FILES (X86)\MICROSOFT VISUAL STUDIO 12.0\VC\INCLUDE\SAL.H
C:\PROGRAM FILES (X86)\MICROSOFT VISUAL STUDIO 12.0\VC\INCLUDE\CONCURRENCYSAL.H
C:\PROGRAM FILES (X86)\MICROSOFT VISUAL STUDIO 12.0\VC\INCLUDE\VADEFS.H
C:\PROGRAM FILES (X86)\MICROSOFT VISUAL STUDIO 12.0\VC\INCLUDE\STDDEF.H
C:\USERS\ZVOXT\DOCUMENTS\CEXGINE\CHEAT ENGINE\LUA53\LUA53\SRC\LUA.H
C:\PROGRAM FILES (X86)\MICROSOFT VISUAL STUDIO 12.0\VC\INCLUDE\STDARG.H
C:\USERS\ZVOXT\DOCUMENTS\CEXGINE\CHEAT ENGINE\LUA53\LUA53\SRC\LUACONF.H
C:\USERS\ZVOXT\DOCUMENTS\CEXGINE\CHEAT ENGINE\LUA53\LUA53\SRC\LUA_USER.H
C:\USERS\ZVOXT\DOCUMENTS\CEXGINE\CHEAT ENGINE\LUA53\LUA53\SRC\LAUXLIB.H
C:\PROGRAM FILES (X86)\MICROSOFT VISUAL STUDIO 12.0\VC\INCLUDE\STDIO.H
C:\PROGRAM FILES (X86)\MICROSOFT VISUAL STUDIO 12.0\VC\INCLUDE\SWPRINTF.INL
C:\USERS\ZVOXT\DOCUMENTS\CEXGINE\CHEAT ENGINE\LUA53\LUA53\SRC\LUALIB.H
^C:\USERS\ZVOXT\DOCUMENTS\CEXGINE\CHEAT ENGINE\LUA53\LUA53\SRC\LTABLE.C
C:\USERS\ZVOXT\DOCUMENTS\CEXGINE\CHEAT ENGINE\LUA53\LUA53\SRC\LPREFIX.H
C:\PROGRAM FILES (X86)\MICROSOFT VISUAL STUDIO 12.0\VC\INCLUDE\FLOAT.H
C:\PROGRAM FILES (X86)\MICROSOFT VISUAL STUDIO 12.0\VC\INCLUDE\CRTDEFS.H
C:\PROGRAM FILES (X86)\MICROSOFT VISUAL STUDIO 12.0\VC\INCLUDE\SAL.H
C:\PROGRAM FILES (X86)\MICROSOFT VISUAL STUDIO 12.0\VC\INCLUDE\CONCURRENCYSAL.H
C:\PROGRAM FILES (X86)\MICROSOFT VISUAL STUDIO 12.0\VC\INCLUDE\VADEFS.H
C:\PROGRAM FILES (X86)\MICROSOFT VISUAL STUDIO 12.0\VC\INCLUDE\CRTWRN.H
C:\PROGRAM FILES (X86)\MICROSOFT VISUAL STUDIO 12.0\VC\INCLUDE\MATH.H
C:\PROGRAM FILES (X86)\MICROSOFT VISUAL STUDIO 12.0\VC\INCLUDE\STRING.H
C:\PROGRAM FILES (X86)\MICROSOFT VISUAL STUDIO 12.0\VC\INCLUDE\LIMITS.H
C:\USERS\ZVOXT\DOCUMENTS\CEXGINE\CHEAT ENGINE\LUA53\LUA53\SRC\LUA.H
C:\PROGRAM FILES (X86)\MICROSOFT VISUAL STUDIO 12.0\VC\INCLUDE\STDARG.H
C:\PROGRAM FILES (X86)\MICROSOFT VISUAL STUDIO 12.0\VC\INCLUDE\STDDEF.H
C:\USERS\ZVOXT\DOCUMENTS\CEXGINE\CHEAT ENGINE\LUA53\LUA53\SRC\LUACONF.H
C:\USERS\ZVOXT\DOCUMENTS\CEXGINE\CHEAT ENGINE\LUA53\LUA53\SRC\LUA_USER.H
C:\USERS\ZVOXT\DOCUMENTS\CEXGINE\CHEAT ENGINE\LUA53\LUA53\SRC\LDEBUG.H
C:\USERS\ZVOXT\DOCUMENTS\CEXGINE\CHEAT ENGINE\LUA53\LUA53\SRC\LSTATE.H
C:\USERS\ZVOXT\DOCUMENTS\CEXGINE\CHEAT ENGINE\LUA53\LUA53\SRC\LOBJECT.H
C:\USERS\ZVOXT\DOCUMENTS\CEXGINE\CHEAT ENGINE\LUA53\LUA53\SRC\LLIMITS.H
C:\USERS\ZVOXT\DOCUMENTS\CEXGINE\CHEAT ENGINE\LUA53\LUA53\SRC\LTM.H
C:\USERS\ZVOXT\DOCUMENTS\CEXGINE\CHEAT ENGINE\LUA53\LUA53\SRC\LZIO.H
C:\USERS\ZVOXT\DOCUMENTS\CEXGINE\CHEAT ENGINE\LUA53\LUA53\SRC\LMEM.H
C:\USERS\ZVOXT\DOCUMENTS\CEXGINE\CHEAT ENGINE\LUA53\LUA53\SRC\LDO.H
C:\USERS\ZVOXT\DOCUMENTS\CEXGINE\CHEAT ENGINE\LUA53\LUA53\SRC\LGC.H
C:\USERS\ZVOXT\DOCUMENTS\CEXGINE\CHEAT ENGINE\LUA53\LUA53\SRC\LSTRING.H
C:\USERS\ZVOXT\DOCUMENTS\CEXGINE\CHEAT ENGINE\LUA53\LUA53\SRC\LTABLE.H
C:\USERS\ZVOXT\DOCUMENTS\CEXGINE\CHEAT ENGINE\LUA53\LUA53\SRC\LVM.H
^C:\USERS\ZVOXT\DOCUMENTS\CEXGINE\CHEAT ENGINE\LUA53\LUA53\SRC\LSTRLIB.C
C:\USERS\ZVOXT\DOCUMENTS\CEXGINE\CHEAT ENGINE\LUA53\LUA53\SRC\LPREFIX.H
C:\PROGRAM FILES (X86)\MICROSOFT VISUAL STUDIO 12.0\VC\INCLUDE\CTYPE.H
C:\PROGRAM FILES (X86)\MICROSOFT VISUAL STUDIO 12.0\VC\INCLUDE\CRTDEFS.H
C:\PROGRAM FILES (X86)\MICROSOFT VISUAL STUDIO 12.0\VC\INCLUDE\SAL.H
C:\PROGRAM FILES (X86)\MICROSOFT VISUAL STUDIO 12.0\VC\INCLUDE\CONCURRENCYSAL.H
C:\PROGRAM FILES (X86)\MICROSOFT VISUAL STUDIO 12.0\VC\INCLUDE\VADEFS.H
C:\PROGRAM FILES (X86)\MICROSOFT VISUAL STUDIO 12.0\VC\INCLUDE\LIMITS.H
C:\PROGRAM FILES (X86)\MICROSOFT VISUAL STUDIO 12.0\VC\INCLUDE\STDDEF.H
C:\PROGRAM FILES (X86)\MICROSOFT VISUAL STUDIO 12.0\VC\INCLUDE\STDIO.H
C:\PROGRAM FILES (X86)\MICROSOFT VISUAL STUDIO 12.0\VC\INCLUDE\SWPRINTF.INL
C:\PROGRAM FILES (X86)\MICROSOFT VISUAL STUDIO 12.0\VC\INCLUDE\STDLIB.H
C:\PROGRAM FILES (X86)\MICROSOFT VISUAL STUDIO 12.0\VC\INCLUDE\STRING.H
C:\USERS\ZVOXT\DOCUMENTS\CEXGINE\CHEAT ENGINE\LUA53\LUA53\SRC\LUA.H
C:\PROGRAM FILES (X86)\MICROSOFT VISUAL STUDIO 12.0\VC\INCLUDE\STDARG.H
C:\USERS\ZVOXT\DOCUMENTS\CEXGINE\CHEAT ENGINE\LUA53\LUA53\SRC\LUACONF.H
C:\USERS\ZVOXT\DOCUMENTS\CEXGINE\CHEAT ENGINE\LUA53\LUA53\SRC\LUA_USER.H
C:\USERS\ZVOXT\DOCUMENTS\CEXGINE\CHEAT ENGINE\LUA53\LUA53\SRC\LAUXLIB.H
C:\USERS\ZVOXT\DOCUMENTS\CEXGINE\CHEAT ENGINE\LUA53\LUA53\SRC\LUALIB.H
^C:\USERS\ZVOXT\DOCUMENTS\CEXGINE\CHEAT ENGINE\LUA53\LUA53\SRC\LSTRING.C
C:\USERS\ZVOXT\DOCUMENTS\CEXGINE\CHEAT ENGINE\LUA53\LUA53\SRC\LPREFIX.H
C:\PROGRAM FILES (X86)\MICROSOFT VISUAL STUDIO 12.0\VC\INCLUDE\STRING.H
C:\PROGRAM FILES (X86)\MICROSOFT VISUAL STUDIO 12.0\VC\INCLUDE\CRTDEFS.H
C:\PROGRAM FILES (X86)\MICROSOFT VISUAL STUDIO 12.0\VC\INCLUDE\SAL.H
C:\PROGRAM FILES (X86)\MICROSOFT VISUAL STUDIO 12.0\VC\INCLUDE\CONCURRENCYSAL.H
C:\PROGRAM FILES (X86)\MICROSOFT VISUAL STUDIO 12.0\VC\INCLUDE\VADEFS.H
C:\USERS\ZVOXT\DOCUMENTS\CEXGINE\CHEAT ENGINE\LUA53\LUA53\SRC\LUA.H
C:\PROGRAM FILES (X86)\MICROSOFT VISUAL STUDIO 12.0\VC\INCLUDE\STDARG.H
C:\PROGRAM FILES (X86)\MICROSOFT VISUAL STUDIO 12.0\VC\INCLUDE\STDDEF.H
C:\USERS\ZVOXT\DOCUMENTS\CEXGINE\CHEAT ENGINE\LUA53\LUA53\SRC\LUACONF.H
C:\PROGRAM FILES (X86)\MICROSOFT VISUAL STUDIO 12.0\VC\INCLUDE\LIMITS.H
C:\USERS\ZVOXT\DOCUMENTS\CEXGINE\CHEAT ENGINE\LUA53\LUA53\SRC\LUA_USER.H
C:\USERS\ZVOXT\DOCUMENTS\CEXGINE\CHEAT ENGINE\LUA53\LUA53\SRC\LDEBUG.H
C:\USERS\ZVOXT\DOCUMENTS\CEXGINE\CHEAT ENGINE\LUA53\LUA53\SRC\LSTATE.H
C:\USERS\ZVOXT\DOCUMENTS\CEXGINE\CHEAT ENGINE\LUA53\LUA53\SRC\LOBJECT.H
C:\USERS\ZVOXT\DOCUMENTS\CEXGINE\CHEAT ENGINE\LUA53\LUA53\SRC\LLIMITS.H
C:\USERS\ZVOXT\DOCUMENTS\CEXGINE\CHEAT ENGINE\LUA53\LUA53\SRC\LTM.H
C:\USERS\ZVOXT\DOCUMENTS\CEXGINE\CHEAT ENGINE\LUA53\LUA53\SRC\LZIO.H
C:\USERS\ZVOXT\DOCUMENTS\CEXGINE\CHEAT ENGINE\LUA53\LUA53\SRC\LMEM.H
C:\USERS\ZVOXT\DOCUMENTS\CEXGINE\CHEAT ENGINE\LUA53\LUA53\SRC\LDO.H
C:\USERS\ZVOXT\DOCUMENTS\CEXGINE\CHEAT ENGINE\LUA53\LUA53\SRC\LSTRING.H
C:\USERS\ZVOXT\DOCUMENTS\CEXGINE\CHEAT ENGINE\LUA53\LUA53\SRC\LGC.H
^C:\USERS\ZVOXT\DOCUMENTS\CEXGINE\CHEAT ENGINE\LUA53\LUA53\SRC\LSTATE.C
C:\USERS\ZVOXT\DOCUMENTS\CEXGINE\CHEAT ENGINE\LUA53\LUA53\SRC\LPREFIX.H
C:\PROGRAM FILES (X86)\MICROSOFT VISUAL STUDIO 12.0\VC\INCLUDE\STDDEF.H
C:\PROGRAM FILES (X86)\MICROSOFT VISUAL STUDIO 12.0\VC\INCLUDE\CRTDEFS.H
C:\PROGRAM FILES (X86)\MICROSOFT VISUAL STUDIO 12.0\VC\INCLUDE\SAL.H
C:\PROGRAM FILES (X86)\MICROSOFT VISUAL STUDIO 12.0\VC\INCLUDE\CONCURRENCYSAL.H
C:\PROGRAM FILES (X86)\MICROSOFT VISUAL STUDIO 12.0\VC\INCLUDE\VADEFS.H
C:\PROGRAM FILES (X86)\MICROSOFT VISUAL STUDIO 12.0\VC\INCLUDE\STRING.H
C:\USERS\ZVOXT\DOCUMENTS\CEXGINE\CHEAT ENGINE\LUA53\LUA53\SRC\LUA.H
C:\PROGRAM FILES (X86)\MICROSOFT VISUAL STUDIO 12.0\VC\INCLUDE\STDARG.H
C:\USERS\ZVOXT\DOCUMENTS\CEXGINE\CHEAT ENGINE\LUA53\LUA53\SRC\LUACONF.H
C:\PROGRAM FILES (X86)\MICROSOFT VISUAL STUDIO 12.0\VC\INCLUDE\LIMITS.H
C:\USERS\ZVOXT\DOCUMENTS\CEXGINE\CHEAT ENGINE\LUA53\LUA53\SRC\LUA_USER.H
C:\USERS\ZVOXT\DOCUMENTS\CEXGINE\CHEAT ENGINE\LUA53\LUA53\SRC\LAPI.H
C:\USERS\ZVOXT\DOCUMENTS\CEXGINE\CHEAT ENGINE\LUA53\LUA53\SRC\LLIMITS.H
C:\USERS\ZVOXT\DOCUMENTS\CEXGINE\CHEAT ENGINE\LUA53\LUA53\SRC\LSTATE.H
C:\USERS\ZVOXT\DOCUMENTS\CEXGINE\CHEAT ENGINE\LUA53\LUA53\SRC\LOBJECT.H
C:\USERS\ZVOXT\DOCUMENTS\CEXGINE\CHEAT ENGINE\LUA53\LUA53\SRC\LTM.H
C:\USERS\ZVOXT\DOCUMENTS\CEXGINE\CHEAT ENGINE\LUA53\LUA53\SRC\LZIO.H
C:\USERS\ZVOXT\DOCUMENTS\CEXGINE\CHEAT ENGINE\LUA53\LUA53\SRC\LMEM.H
C:\USERS\ZVOXT\DOCUMENTS\CEXGINE\CHEAT ENGINE\LUA53\LUA53\SRC\LDEBUG.H
C:\USERS\ZVOXT\DOCUMENTS\CEXGINE\CHEAT ENGINE\LUA53\LUA53\SRC\LDO.H
C:\USERS\ZVOXT\DOCUMENTS\CEXGINE\CHEAT ENGINE\LUA53\LUA53\SRC\LFUNC.H
C:\USERS\ZVOXT\DOCUMENTS\CEXGINE\CHEAT ENGINE\LUA53\LUA53\SRC\LGC.H
C:\USERS\ZVOXT\DOCUMENTS\CEXGINE\CHEAT ENGINE\LUA53\LUA53\SRC\LLEX.H
C:\USERS\ZVOXT\DOCUMENTS\CEXGINE\CHEAT ENGINE\LUA53\LUA53\SRC\LSTRING.H
C:\USERS\ZVOXT\DOCUMENTS\CEXGINE\CHEAT ENGINE\LUA53\LUA53\SRC\LTABLE.H
C:\PROGRAM FILES (X86)\MICROSOFT VISUAL STUDIO 12.0\VC\INCLUDE\TIME.H
C:\PROGRAM FILES (X86)\MICROSOFT VISUAL STUDIO 12.0\VC\INCLUDE\WTIME.INL
C:\PROGRAM FILES (X86)\MICROSOFT VISUAL STUDIO 12.0\VC\INCLUDE\TIME.INL
^C:\USERS\ZVOXT\DOCUMENTS\CEXGINE\CHEAT ENGINE\LUA53\LUA53\SRC\LPARSER.C
C:\USERS\ZVOXT\DOCUMENTS\CEXGINE\CHEAT ENGINE\LUA53\LUA53\SRC\LPREFIX.H
C:\PROGRAM FILES (X86)\MICROSOFT VISUAL STUDIO 12.0\VC\INCLUDE\STRING.H
C:\PROGRAM FILES (X86)\MICROSOFT VISUAL STUDIO 12.0\VC\INCLUDE\CRTDEFS.H
C:\PROGRAM FILES (X86)\MICROSOFT VISUAL STUDIO 12.0\VC\INCLUDE\SAL.H
C:\PROGRAM FILES (X86)\MICROSOFT VISUAL STUDIO 12.0\VC\INCLUDE\CONCURRENCYSAL.H
C:\PROGRAM FILES (X86)\MICROSOFT VISUAL STUDIO 12.0\VC\INCLUDE\VADEFS.H
C:\USERS\ZVOXT\DOCUMENTS\CEXGINE\CHEAT ENGINE\LUA53\LUA53\SRC\LUA.H
C:\PROGRAM FILES (X86)\MICROSOFT VISUAL STUDIO 12.0\VC\INCLUDE\STDARG.H
C:\PROGRAM FILES (X86)\MICROSOFT VISUAL STUDIO 12.0\VC\INCLUDE\STDDEF.H
C:\USERS\ZVOXT\DOCUMENTS\CEXGINE\CHEAT ENGINE\LUA53\LUA53\SRC\LUACONF.H
C:\PROGRAM FILES (X86)\MICROSOFT VISUAL STUDIO 12.0\VC\INCLUDE\LIMITS.H
C:\USERS\ZVOXT\DOCUMENTS\CEXGINE\CHEAT ENGINE\LUA53\LUA53\SRC\LUA_USER.H
C:\USERS\ZVOXT\DOCUMENTS\CEXGINE\CHEAT ENGINE\LUA53\LUA53\SRC\LCODE.H
C:\USERS\ZVOXT\DOCUMENTS\CEXGINE\CHEAT ENGINE\LUA53\LUA53\SRC\LLEX.H
C:\USERS\ZVOXT\DOCUMENTS\CEXGINE\CHEAT ENGINE\LUA53\LUA53\SRC\LOBJECT.H
C:\USERS\ZVOXT\DOCUMENTS\CEXGINE\CHEAT ENGINE\LUA53\LUA53\SRC\LLIMITS.H
C:\USERS\ZVOXT\DOCUMENTS\CEXGINE\CHEAT ENGINE\LUA53\LUA53\SRC\LZIO.H
C:\USERS\ZVOXT\DOCUMENTS\CEXGINE\CHEAT ENGINE\LUA53\LUA53\SRC\LMEM.H
C:\USERS\ZVOXT\DOCUMENTS\CEXGINE\CHEAT ENGINE\LUA53\LUA53\SRC\LOPCODES.H
C:\USERS\ZVOXT\DOCUMENTS\CEXGINE\CHEAT ENGINE\LUA53\LUA53\SRC\LPARSER.H
C:\USERS\ZVOXT\DOCUMENTS\CEXGINE\CHEAT ENGINE\LUA53\LUA53\SRC\LDEBUG.H
C:\USERS\ZVOXT\DOCUMENTS\CEXGINE\CHEAT ENGINE\LUA53\LUA53\SRC\LSTATE.H
C:\USERS\ZVOXT\DOCUMENTS\CEXGINE\CHEAT ENGINE\LUA53\LUA53\SRC\LTM.H
C:\USERS\ZVOXT\DOCUMENTS\CEXGINE\CHEAT ENGINE\LUA53\LUA53\SRC\LDO.H
C:\USERS\ZVOXT\DOCUMENTS\CEXGINE\CHEAT ENGINE\LUA53\LUA53\SRC\LFUNC.H
C:\USERS\ZVOXT\DOCUMENTS\CEXGINE\CHEAT ENGINE\LUA53\LUA53\SRC\LSTRING.H
C:\USERS\ZVOXT\DOCUMENTS\CEXGINE\CHEAT ENGINE\LUA53\LUA53\SRC\LGC.H
C:\USERS\ZVOXT\DOCUMENTS\CEXGINE\CHEAT ENGINE\LUA53\LUA53\SRC\LTABLE.H
^C:\USERS\ZVOXT\DOCUMENTS\CEXGINE\CHEAT ENGINE\LUA53\LUA53\SRC\LOSLIB.C
C:\USERS\ZVOXT\DOCUMENTS\CEXGINE\CHEAT ENGINE\LUA53\LUA53\SRC\LPREFIX.H
C:\PROGRAM FILES (X86)\MICROSOFT VISUAL STUDIO 12.0\VC\INCLUDE\ERRNO.H
C:\PROGRAM FILES (X86)\MICROSOFT VISUAL STUDIO 12.0\VC\INCLUDE\CRTDEFS.H
C:\PROGRAM FILES (X86)\MICROSOFT VISUAL STUDIO 12.0\VC\INCLUDE\SAL.H
C:\PROGRAM FILES (X86)\MICROSOFT VISUAL STUDIO 12.0\VC\INCLUDE\CONCURRENCYSAL.H
C:\PROGRAM FILES (X86)\MICROSOFT VISUAL STUDIO 12.0\VC\INCLUDE\VADEFS.H
C:\PROGRAM FILES (X86)\MICROSOFT VISUAL STUDIO 12.0\VC\INCLUDE\LOCALE.H
C:\PROGRAM FILES (X86)\MICROSOFT VISUAL STUDIO 12.0\VC\INCLUDE\STDLIB.H
C:\PROGRAM FILES (X86)\MICROSOFT VISUAL STUDIO 12.0\VC\INCLUDE\LIMITS.H
C:\PROGRAM FILES (X86)\MICROSOFT VISUAL STUDIO 12.0\VC\INCLUDE\STRING.H
C:\PROGRAM FILES (X86)\MICROSOFT VISUAL STUDIO 12.0\VC\INCLUDE\TIME.H
C:\PROGRAM FILES (X86)\MICROSOFT VISUAL STUDIO 12.0\VC\INCLUDE\WTIME.INL
C:\PROGRAM FILES (X86)\MICROSOFT VISUAL STUDIO 12.0\VC\INCLUDE\TIME.INL
C:\USERS\ZVOXT\DOCUMENTS\CEXGINE\CHEAT ENGINE\LUA53\LUA53\SRC\LUA.H
C:\PROGRAM FILES (X86)\MICROSOFT VISUAL STUDIO 12.0\VC\INCLUDE\STDARG.H
C:\PROGRAM FILES (X86)\MICROSOFT VISUAL STUDIO 12.0\VC\INCLUDE\STDDEF.H
C:\USERS\ZVOXT\DOCUMENTS\CEXGINE\CHEAT ENGINE\LUA53\LUA53\SRC\LUACONF.H
C:\USERS\ZVOXT\DOCUMENTS\CEXGINE\CHEAT ENGINE\LUA53\LUA53\SRC\LUA_USER.H
C:\USERS\ZVOXT\DOCUMENTS\CEXGINE\CHEAT ENGINE\LUA53\LUA53\SRC\LAUXLIB.H
C:\PROGRAM FILES (X86)\MICROSOFT VISUAL STUDIO 12.0\VC\INCLUDE\STDIO.H
C:\PROGRAM FILES (X86)\MICROSOFT VISUAL STUDIO 12.0\VC\INCLUDE\SWPRINTF.INL
C:\USERS\ZVOXT\DOCUMENTS\CEXGINE\CHEAT ENGINE\LUA53\LUA53\SRC\LUALIB.H
^C:\USERS\ZVOXT\DOCUMENTS\CEXGINE\CHEAT ENGINE\LUA53\LUA53\SRC\LOPCODES.C
C:\USERS\ZVOXT\DOCUMENTS\CEXGINE\CHEAT ENGINE\LUA53\LUA53\SRC\LPREFIX.H
C:\PROGRAM FILES (X86)\MICROSOFT VISUAL STUDIO 12.0\VC\INCLUDE\STDDEF.H
C:\PROGRAM FILES (X86)\MICROSOFT VISUAL STUDIO 12.0\VC\INCLUDE\CRTDEFS.H
C:\PROGRAM FILES (X86)\MICROSOFT VISUAL STUDIO 12.0\VC\INCLUDE\SAL.H
C:\PROGRAM FILES (X86)\MICROSOFT VISUAL STUDIO 12.0\VC\INCLUDE\CONCURRENCYSAL.H
C:\PROGRAM FILES (X86)\MICROSOFT VISUAL STUDIO 12.0\VC\INCLUDE\VADEFS.H
C:\USERS\ZVOXT\DOCUMENTS\CEXGINE\CHEAT ENGINE\LUA53\LUA53\SRC\LOPCODES.H
C:\USERS\ZVOXT\DOCUMENTS\CEXGINE\CHEAT ENGINE\LUA53\LUA53\SRC\LLIMITS.H
C:\PROGRAM FILES (X86)\MICROSOFT VISUAL STUDIO 12.0\VC\INCLUDE\LIMITS.H
C:\USERS\ZVOXT\DOCUMENTS\CEXGINE\CHEAT ENGINE\LUA53\LUA53\SRC\LUA.H
C:\PROGRAM FILES (X86)\MICROSOFT VISUAL STUDIO 12.0\VC\INCLUDE\STDARG.H
C:\USERS\ZVOXT\DOCUMENTS\CEXGINE\CHEAT ENGINE\LUA53\LUA53\SRC\LUACONF.H
C:\USERS\ZVOXT\DOCUMENTS\CEXGINE\CHEAT ENGINE\LUA53\LUA53\SRC\LUA_USER.H
^C:\USERS\ZVOXT\DOCUMENTS\CEXGINE\CHEAT ENGINE\LUA53\LUA53\SRC\LOBJECT.C
C:\USERS\ZVOXT\DOCUMENTS\CEXGINE\CHEAT ENGINE\LUA53\LUA53\SRC\LPREFIX.H
C:\PROGRAM FILES (X86)\MICROSOFT VISUAL STUDIO 12.0\VC\INCLUDE\STDARG.H
C:\PROGRAM FILES (X86)\MICROSOFT VISUAL STUDIO 12.0\VC\INCLUDE\CRTDEFS.H
C:\PROGRAM FILES (X86)\MICROSOFT VISUAL STUDIO 12.0\VC\INCLUDE\SAL.H
C:\PROGRAM FILES (X86)\MICROSOFT VISUAL STUDIO 12.0\VC\INCLUDE\CONCURRENCYSAL.H
C:\PROGRAM FILES (X86)\MICROSOFT VISUAL STUDIO 12.0\VC\INCLUDE\VADEFS.H
C:\PROGRAM FILES (X86)\MICROSOFT VISUAL STUDIO 12.0\VC\INCLUDE\STDIO.H
C:\PROGRAM FILES (X86)\MICROSOFT VISUAL STUDIO 12.0\VC\INCLUDE\SWPRINTF.INL
C:\PROGRAM FILES (X86)\MICROSOFT VISUAL STUDIO 12.0\VC\INCLUDE\STDLIB.H
C:\PROGRAM FILES (X86)\MICROSOFT VISUAL STUDIO 12.0\VC\INCLUDE\LIMITS.H
C:\PROGRAM FILES (X86)\MICROSOFT VISUAL STUDIO 12.0\VC\INCLUDE\STRING.H
C:\USERS\ZVOXT\DOCUMENTS\CEXGINE\CHEAT ENGINE\LUA53\LUA53\SRC\LUA.H
C:\PROGRAM FILES (X86)\MICROSOFT VISUAL STUDIO 12.0\VC\INCLUDE\STDDEF.H
C:\USERS\ZVOXT\DOCUMENTS\CEXGINE\CHEAT ENGINE\LUA53\LUA53\SRC\LUACONF.H
C:\PROGRAM FILES (X86)\MICROSOFT VISUAL STUDIO 12.0\VC\INCLUDE\MATH.H
C:\USERS\ZVOXT\DOCUMENTS\CEXGINE\CHEAT ENGINE\LUA53\LUA53\SRC\LUA_USER.H
C:\USERS\ZVOXT\DOCUMENTS\CEXGINE\CHEAT ENGINE\LUA53\LUA53\SRC\LCTYPE.H
C:\USERS\ZVOXT\DOCUMENTS\CEXGINE\CHEAT ENGINE\LUA53\LUA53\SRC\LLIMITS.H
C:\USERS\ZVOXT\DOCUMENTS\CEXGINE\CHEAT ENGINE\LUA53\LUA53\SRC\LDEBUG.H
C:\USERS\ZVOXT\DOCUMENTS\CEXGINE\CHEAT ENGINE\LUA53\LUA53\SRC\LSTATE.H
C:\USERS\ZVOXT\DOCUMENTS\CEXGINE\CHEAT ENGINE\LUA53\LUA53\SRC\LOBJECT.H
C:\USERS\ZVOXT\DOCUMENTS\CEXGINE\CHEAT ENGINE\LUA53\LUA53\SRC\LTM.H
C:\USERS\ZVOXT\DOCUMENTS\CEXGINE\CHEAT ENGINE\LUA53\LUA53\SRC\LZIO.H
C:\USERS\ZVOXT\DOCUMENTS\CEXGINE\CHEAT ENGINE\LUA53\LUA53\SRC\LMEM.H
C:\USERS\ZVOXT\DOCUMENTS\CEXGINE\CHEAT ENGINE\LUA53\LUA53\SRC\LDO.H
C:\USERS\ZVOXT\DOCUMENTS\CEXGINE\CHEAT ENGINE\LUA53\LUA53\SRC\LSTRING.H
C:\USERS\ZVOXT\DOCUMENTS\CEXGINE\CHEAT ENGINE\LUA53\LUA53\SRC\LGC.H
C:\USERS\ZVOXT\DOCUMENTS\CEXGINE\CHEAT ENGINE\LUA53\LUA53\SRC\LVM.H
^C:\USERS\ZVOXT\DOCUMENTS\CEXGINE\CHEAT ENGINE\LUA53\LUA53\SRC\LOADLIB.C
C:\USERS\ZVOXT\DOCUMENTS\CEXGINE\CHEAT ENGINE\LUA53\LUA53\SRC\LPREFIX.H
C:\PROGRAM FILES (X86)\MICROSOFT VISUAL STUDIO 12.0\VC\INCLUDE\STDLIB.H
C:\PROGRAM FILES (X86)\MICROSOFT VISUAL STUDIO 12.0\VC\INCLUDE\CRTDEFS.H
C:\PROGRAM FILES (X86)\MICROSOFT VISUAL STUDIO 12.0\VC\INCLUDE\SAL.H
C:\PROGRAM FILES (X86)\MICROSOFT VISUAL STUDIO 12.0\VC\INCLUDE\CONCURRENCYSAL.H
C:\PROGRAM FILES (X86)\MICROSOFT VISUAL STUDIO 12.0\VC\INCLUDE\VADEFS.H
C:\PROGRAM FILES (X86)\MICROSOFT VISUAL STUDIO 12.0\VC\INCLUDE\LIMITS.H
C:\PROGRAM FILES (X86)\MICROSOFT VISUAL STUDIO 12.0\VC\INCLUDE\STRING.H
C:\USERS\ZVOXT\DOCUMENTS\CEXGINE\CHEAT ENGINE\LUA53\LUA53\SRC\LUA.H
C:\PROGRAM FILES (X86)\MICROSOFT VISUAL STUDIO 12.0\VC\INCLUDE\STDARG.H
C:\PROGRAM FILES (X86)\MICROSOFT VISUAL STUDIO 12.0\VC\INCLUDE\STDDEF.H
C:\USERS\ZVOXT\DOCUMENTS\CEXGINE\CHEAT ENGINE\LUA53\LUA53\SRC\LUACONF.H
C:\USERS\ZVOXT\DOCUMENTS\CEXGINE\CHEAT ENGINE\LUA53\LUA53\SRC\LUA_USER.H
C:\USERS\ZVOXT\DOCUMENTS\CEXGINE\CHEAT ENGINE\LUA53\LUA53\SRC\LAUXLIB.H
C:\PROGRAM FILES (X86)\MICROSOFT VISUAL STUDIO 12.0\VC\INCLUDE\STDIO.H
C:\PROGRAM FILES (X86)\MICROSOFT VISUAL STUDIO 12.0\VC\INCLUDE\SWPRINTF.INL
C:\USERS\ZVOXT\DOCUMENTS\CEXGINE\CHEAT ENGINE\LUA53\LUA53\SRC\LUALIB.H
C:\PROGRAM FILES (X86)\MICROSOFT SDKS\WINDOWS\V7.1A\INCLUDE\WINDOWS.H
C:\PROGRAM FILES (X86)\MICROSOFT SDKS\WINDOWS\V7.1A\INCLUDE\SDKDDKVER.H
C:\PROGRAM FILES (X86)\MICROSOFT VISUAL STUDIO 12.0\VC\INCLUDE\EXCPT.H
C:\PROGRAM FILES (X86)\MICROSOFT SDKS\WINDOWS\V7.1A\INCLUDE\WINDEF.H
C:\PROGRAM FILES (X86)\MICROSOFT SDKS\WINDOWS\V7.1A\INCLUDE\WINNT.H
C:\PROGRAM FILES (X86)\MICROSOFT VISUAL STUDIO 12.0\VC\INCLUDE\CTYPE.H
C:\PROGRAM FILES (X86)\MICROSOFT SDKS\WINDOWS\V7.1A\INCLUDE\SPECSTRINGS.H
C:\PROGRAM FILES (X86)\MICROSOFT SDKS\WINDOWS\V7.1A\INCLUDE\SAL_SUPP.H
C:\PROGRAM FILES (X86)\MICROSOFT SDKS\WINDOWS\V7.1A\INCLUDE\SPECSTRINGS_SUPP.H
C:\PROGRAM FILES (X86)\MICROSOFT SDKS\WINDOWS\V7.1A\INCLUDE\SPECSTRINGS_STRICT.H
C:\PROGRAM FILES (X86)\MICROSOFT SDKS\WINDOWS\V7.1A\INCLUDE\SPECSTRINGS_UNDEF.H
C:\PROGRAM FILES (X86)\MICROSOFT SDKS\WINDOWS\V7.1A\INCLUDE\DRIVERSPECS.H
C:\PROGRAM FILES (X86)\MICROSOFT SDKS\WINDOWS\V7.1A\INCLUDE\SDV_DRIVERSPECS.H
C:\PROGRAM FILES (X86)\MICROSOFT SDKS\WINDOWS\V7.1A\INCLUDE\KERNELSPECS.H
C:\PROGRAM FILES (X86)\MICROSOFT SDKS\WINDOWS\V7.1A\INCLUDE\BASETSD.H
C:\PROGRAM FILES (X86)\MICROSOFT SDKS\WINDOWS\V7.1A\INCLUDE\GUIDDEF.H
C:\PROGRAM FILES (X86)\MICROSOFT SDKS\WINDOWS\V7.1A\INCLUDE\PSHPACK4.H
C:\PROGRAM FILES (X86)\MICROSOFT SDKS\WINDOWS\V7.1A\INCLUDE\POPPACK.H
C:\PROGRAM FILES (X86)\MICROSOFT SDKS\WINDOWS\V7.1A\INCLUDE\PSHPACK2.H
C:\PROGRAM FILES (X86)\MICROSOFT SDKS\WINDOWS\V7.1A\INCLUDE\PSHPACK8.H
C:\PROGRAM FILES (X86)\MICROSOFT SDKS\WINDOWS\V7.1A\INCLUDE\KTMTYPES.H
C:\PROGRAM FILES (X86)\MICROSOFT SDKS\WINDOWS\V7.1A\INCLUDE\WINBASE.H
C:\PROGRAM FILES (X86)\MICROSOFT SDKS\WINDOWS\V7.1A\INCLUDE\WINERROR.H
C:\PROGRAM FILES (X86)\MICROSOFT SDKS\WINDOWS\V7.1A\INCLUDE\WINGDI.H
C:\PROGRAM FILES (X86)\MICROSOFT SDKS\WINDOWS\V7.1A\INCLUDE\PSHPACK1.H
C:\PROGRAM FILES (X86)\MICROSOFT SDKS\WINDOWS\V7.1A\INCLUDE\WINUSER.H
C:\PROGRAM FILES (X86)\MICROSOFT SDKS\WINDOWS\V7.1A\INCLUDE\TVOUT.H
C:\PROGRAM FILES (X86)\MICROSOFT SDKS\WINDOWS\V7.1A\INCLUDE\WINNLS.H
C:\PROGRAM FILES (X86)\MICROSOFT SDKS\WINDOWS\V7.1A\INCLUDE\WINCON.H
C:\PROGRAM FILES (X86)\MICROSOFT SDKS\WINDOWS\V7.1A\INCLUDE\WINVER.H
C:\PROGRAM FILES (X86)\MICROSOFT SDKS\WINDOWS\V7.1A\INCLUDE\VERRSRC.H
C:\PROGRAM FILES (X86)\MICROSOFT SDKS\WINDOWS\V7.1A\INCLUDE\WINREG.H
C:\PROGRAM FILES (X86)\MICROSOFT SDKS\WINDOWS\V7.1A\INCLUDE\REASON.H
C:\PROGRAM FILES (X86)\MICROSOFT SDKS\WINDOWS\V7.1A\INCLUDE\WINNETWK.H
C:\PROGRAM FILES (X86)\MICROSOFT SDKS\WINDOWS\V7.1A\INCLUDE\WNNC.H
C:\PROGRAM FILES (X86)\MICROSOFT SDKS\WINDOWS\V7.1A\INCLUDE\CDERR.H
C:\PROGRAM FILES (X86)\MICROSOFT SDKS\WINDOWS\V7.1A\INCLUDE\DDE.H
C:\PROGRAM FILES (X86)\MICROSOFT SDKS\WINDOWS\V7.1A\INCLUDE\DDEML.H
C:\PROGRAM FILES (X86)\MICROSOFT SDKS\WINDOWS\V7.1A\INCLUDE\DLGS.H
C:\PROGRAM FILES (X86)\MICROSOFT SDKS\WINDOWS\V7.1A\INCLUDE\LZEXPAND.H
C:\PROGRAM FILES (X86)\MICROSOFT SDKS\WINDOWS\V7.1A\INCLUDE\MMSYSTEM.H
C:\PROGRAM FILES (X86)\MICROSOFT SDKS\WINDOWS\V7.1A\INCLUDE\NB30.H
C:\PROGRAM FILES (X86)\MICROSOFT SDKS\WINDOWS\V7.1A\INCLUDE\RPC.H
C:\PROGRAM FILES (X86)\MICROSOFT SDKS\WINDOWS\V7.1A\INCLUDE\RPCDCE.H
C:\PROGRAM FILES (X86)\MICROSOFT SDKS\WINDOWS\V7.1A\INCLUDE\RPCDCEP.H
C:\PROGRAM FILES (X86)\MICROSOFT SDKS\WINDOWS\V7.1A\INCLUDE\RPCNSI.H
C:\PROGRAM FILES (X86)\MICROSOFT SDKS\WINDOWS\V7.1A\INCLUDE\RPCNTERR.H
C:\PROGRAM FILES (X86)\MICROSOFT SDKS\WINDOWS\V7.1A\INCLUDE\RPCASYNC.H
C:\PROGRAM FILES (X86)\MICROSOFT SDKS\WINDOWS\V7.1A\INCLUDE\SHELLAPI.H
C:\PROGRAM FILES (X86)\MICROSOFT SDKS\WINDOWS\V7.1A\INCLUDE\WINPERF.H
C:\PROGRAM FILES (X86)\MICROSOFT SDKS\WINDOWS\V7.1A\INCLUDE\WINSOCK.H
C:\PROGRAM FILES (X86)\MICROSOFT SDKS\WINDOWS\V7.1A\INCLUDE\INADDR.H
C:\PROGRAM FILES (X86)\MICROSOFT SDKS\WINDOWS\V7.1A\INCLUDE\WINCRYPT.H
C:\PROGRAM FILES (X86)\MICROSOFT SDKS\WINDOWS\V7.1A\INCLUDE\BCRYPT.H
C:\PROGRAM FILES (X86)\MICROSOFT SDKS\WINDOWS\V7.1A\INCLUDE\NCRYPT.H
C:\PROGRAM FILES (X86)\MICROSOFT SDKS\WINDOWS\V7.1A\INCLUDE\WINEFS.H
C:\PROGRAM FILES (X86)\MICROSOFT SDKS\WINDOWS\V7.1A\INCLUDE\WINSCARD.H
C:\PROGRAM FILES (X86)\MICROSOFT SDKS\WINDOWS\V7.1A\INCLUDE\WTYPES.H
C:\PROGRAM FILES (X86)\MICROSOFT SDKS\WINDOWS\V7.1A\INCLUDE\RPCNDR.H
C:\PROGRAM FILES (X86)\MICROSOFT SDKS\WINDOWS\V7.1A\INCLUDE\RPCNSIP.H
C:\PROGRAM FILES (X86)\MICROSOFT SDKS\WINDOWS\V7.1A\INCLUDE\RPCSAL.H
C:\PROGRAM FILES (X86)\MICROSOFT SDKS\WINDOWS\V7.1A\INCLUDE\WINIOCTL.H
C:\PROGRAM FILES (X86)\MICROSOFT SDKS\WINDOWS\V7.1A\INCLUDE\WINSMCRD.H
C:\PROGRAM FILES (X86)\MICROSOFT SDKS\WINDOWS\V7.1A\INCLUDE\WINSPOOL.H
C:\PROGRAM FILES (X86)\MICROSOFT SDKS\WINDOWS\V7.1A\INCLUDE\PRSHT.H
C:\PROGRAM FILES (X86)\MICROSOFT SDKS\WINDOWS\V7.1A\INCLUDE\OLE2.H
C:\PROGRAM FILES (X86)\MICROSOFT SDKS\WINDOWS\V7.1A\INCLUDE\OBJBASE.H
C:\PROGRAM FILES (X86)\MICROSOFT SDKS\WINDOWS\V7.1A\INCLUDE\UNKNWN.H
C:\PROGRAM FILES (X86)\MICROSOFT SDKS\WINDOWS\V7.1A\INCLUDE\OBJIDL.H
C:\PROGRAM FILES (X86)\MICROSOFT SDKS\WINDOWS\V7.1A\INCLUDE\CGUID.H
C:\PROGRAM FILES (X86)\MICROSOFT SDKS\WINDOWS\V7.1A\INCLUDE\URLMON.H
C:\PROGRAM FILES (X86)\MICROSOFT SDKS\WINDOWS\V7.1A\INCLUDE\OLEIDL.H
C:\PROGRAM FILES (X86)\MICROSOFT SDKS\WINDOWS\V7.1A\INCLUDE\SERVPROV.H
C:\PROGRAM FILES (X86)\MICROSOFT SDKS\WINDOWS\V7.1A\INCLUDE\MSXML.H
C:\PROGRAM FILES (X86)\MICROSOFT SDKS\WINDOWS\V7.1A\INCLUDE\OAIDL.H
C:\PROGRAM FILES (X86)\MICROSOFT SDKS\WINDOWS\V7.1A\INCLUDE\PROPIDL.H
C:\PROGRAM FILES (X86)\MICROSOFT SDKS\WINDOWS\V7.1A\INCLUDE\OLEAUTO.H
C:\PROGRAM FILES (X86)\MICROSOFT SDKS\WINDOWS\V7.1A\INCLUDE\COMMDLG.H
C:\PROGRAM FILES (X86)\MICROSOFT SDKS\WINDOWS\V7.1A\INCLUDE\STRALIGN.H
C:\PROGRAM FILES (X86)\MICROSOFT SDKS\WINDOWS\V7.1A\INCLUDE\WINSVC.H
C:\PROGRAM FILES (X86)\MICROSOFT SDKS\WINDOWS\V7.1A\INCLUDE\MCX.H
C:\PROGRAM FILES (X86)\MICROSOFT SDKS\WINDOWS\V7.1A\INCLUDE\IMM.H
C:\PROGRAM FILES (X86)\MICROSOFT SDKS\WINDOWS\V7.1A\INCLUDE\IME_CMODES.H
^C:\USERS\ZVOXT\DOCUMENTS\CEXGINE\CHEAT ENGINE\LUA53\LUA53\SRC\LMEM.C
C:\USERS\ZVOXT\DOCUMENTS\CEXGINE\CHEAT ENGINE\LUA53\LUA53\SRC\LPREFIX.H
C:\PROGRAM FILES (X86)\MICROSOFT VISUAL STUDIO 12.0\VC\INCLUDE\STDDEF.H
C:\PROGRAM FILES (X86)\MICROSOFT VISUAL STUDIO 12.0\VC\INCLUDE\CRTDEFS.H
C:\PROGRAM FILES (X86)\MICROSOFT VISUAL STUDIO 12.0\VC\INCLUDE\SAL.H
C:\PROGRAM FILES (X86)\MICROSOFT VISUAL STUDIO 12.0\VC\INCLUDE\CONCURRENCYSAL.H
C:\PROGRAM FILES (X86)\MICROSOFT VISUAL STUDIO 12.0\VC\INCLUDE\VADEFS.H
C:\USERS\ZVOXT\DOCUMENTS\CEXGINE\CHEAT ENGINE\LUA53\LUA53\SRC\LUA.H
C:\PROGRAM FILES (X86)\MICROSOFT VISUAL STUDIO 12.0\VC\INCLUDE\STDARG.H
C:\USERS\ZVOXT\DOCUMENTS\CEXGINE\CHEAT ENGINE\LUA53\LUA53\SRC\LUACONF.H
C:\PROGRAM FILES (X86)\MICROSOFT VISUAL STUDIO 12.0\VC\INCLUDE\LIMITS.H
C:\USERS\ZVOXT\DOCUMENTS\CEXGINE\CHEAT ENGINE\LUA53\LUA53\SRC\LUA_USER.H
C:\USERS\ZVOXT\DOCUMENTS\CEXGINE\CHEAT ENGINE\LUA53\LUA53\SRC\LDEBUG.H
C:\USERS\ZVOXT\DOCUMENTS\CEXGINE\CHEAT ENGINE\LUA53\LUA53\SRC\LSTATE.H
C:\USERS\ZVOXT\DOCUMENTS\CEXGINE\CHEAT ENGINE\LUA53\LUA53\SRC\LOBJECT.H
C:\USERS\ZVOXT\DOCUMENTS\CEXGINE\CHEAT ENGINE\LUA53\LUA53\SRC\LLIMITS.H
C:\USERS\ZVOXT\DOCUMENTS\CEXGINE\CHEAT ENGINE\LUA53\LUA53\SRC\LTM.H
C:\USERS\ZVOXT\DOCUMENTS\CEXGINE\CHEAT ENGINE\LUA53\LUA53\SRC\LZIO.H
C:\USERS\ZVOXT\DOCUMENTS\CEXGINE\CHEAT ENGINE\LUA53\LUA53\SRC\LMEM.H
C:\USERS\ZVOXT\DOCUMENTS\CEXGINE\CHEAT ENGINE\LUA53\LUA53\SRC\LDO.H
C:\USERS\ZVOXT\DOCUMENTS\CEXGINE\CHEAT ENGINE\LUA53\LUA53\SRC\LGC.H
^C:\USERS\ZVOXT\DOCUMENTS\CEXGINE\CHEAT ENGINE\LUA53\LUA53\SRC\LMATHLIB.C
C:\USERS\ZVOXT\DOCUMENTS\CEXGINE\CHEAT ENGINE\LUA53\LUA53\SRC\LPREFIX.H
C:\PROGRAM FILES (X86)\MICROSOFT VISUAL STUDIO 12.0\VC\INCLUDE\STDLIB.H
C:\PROGRAM FILES (X86)\MICROSOFT VISUAL STUDIO 12.0\VC\INCLUDE\CRTDEFS.H
C:\PROGRAM FILES (X86)\MICROSOFT VISUAL STUDIO 12.0\VC\INCLUDE\SAL.H
C:\PROGRAM FILES (X86)\MICROSOFT VISUAL STUDIO 12.0\VC\INCLUDE\CONCURRENCYSAL.H
C:\PROGRAM FILES (X86)\MICROSOFT VISUAL STUDIO 12.0\VC\INCLUDE\VADEFS.H
C:\PROGRAM FILES (X86)\MICROSOFT VISUAL STUDIO 12.0\VC\INCLUDE\LIMITS.H
C:\PROGRAM FILES (X86)\MICROSOFT VISUAL STUDIO 12.0\VC\INCLUDE\MATH.H
C:\USERS\ZVOXT\DOCUMENTS\CEXGINE\CHEAT ENGINE\LUA53\LUA53\SRC\LUA.H
C:\PROGRAM FILES (X86)\MICROSOFT VISUAL STUDIO 12.0\VC\INCLUDE\STDARG.H
C:\PROGRAM FILES (X86)\MICROSOFT VISUAL STUDIO 12.0\VC\INCLUDE\STDDEF.H
C:\USERS\ZVOXT\DOCUMENTS\CEXGINE\CHEAT ENGINE\LUA53\LUA53\SRC\LUACONF.H
C:\USERS\ZVOXT\DOCUMENTS\CEXGINE\CHEAT ENGINE\LUA53\LUA53\SRC\LUA_USER.H
C:\USERS\ZVOXT\DOCUMENTS\CEXGINE\CHEAT ENGINE\LUA53\LUA53\SRC\LAUXLIB.H
C:\PROGRAM FILES (X86)\MICROSOFT VISUAL STUDIO 12.0\VC\INCLUDE\STDIO.H
C:\PROGRAM FILES (X86)\MICROSOFT VISUAL STUDIO 12.0\VC\INCLUDE\SWPRINTF.INL
C:\USERS\ZVOXT\DOCUMENTS\CEXGINE\CHEAT ENGINE\LUA53\LUA53\SRC\LUALIB.H
^C:\USERS\ZVOXT\DOCUMENTS\CEXGINE\CHEAT ENGINE\LUA53\LUA53\SRC\LLEX.C
C:\USERS\ZVOXT\DOCUMENTS\CEXGINE\CHEAT ENGINE\LUA53\LUA53\SRC\LPREFIX.H
C:\PROGRAM FILES (X86)\MICROSOFT VISUAL STUDIO 12.0\VC\INCLUDE\LOCALE.H
C:\PROGRAM FILES (X86)\MICROSOFT VISUAL STUDIO 12.0\VC\INCLUDE\CRTDEFS.H
C:\PROGRAM FILES (X86)\MICROSOFT VISUAL STUDIO 12.0\VC\INCLUDE\SAL.H
C:\PROGRAM FILES (X86)\MICROSOFT VISUAL STUDIO 12.0\VC\INCLUDE\CONCURRENCYSAL.H
C:\PROGRAM FILES (X86)\MICROSOFT VISUAL STUDIO 12.0\VC\INCLUDE\VADEFS.H
C:\PROGRAM FILES (X86)\MICROSOFT VISUAL STUDIO 12.0\VC\INCLUDE\STRING.H
C:\USERS\ZVOXT\DOCUMENTS\CEXGINE\CHEAT ENGINE\LUA53\LUA53\SRC\LUA.H
C:\PROGRAM FILES (X86)\MICROSOFT VISUAL STUDIO 12.0\VC\INCLUDE\STDARG.H
C:\PROGRAM FILES (X86)\MICROSOFT VISUAL STUDIO 12.0\VC\INCLUDE\STDDEF.H
C:\USERS\ZVOXT\DOCUMENTS\CEXGINE\CHEAT ENGINE\LUA53\LUA53\SRC\LUACONF.H
C:\PROGRAM FILES (X86)\MICROSOFT VISUAL STUDIO 12.0\VC\INCLUDE\LIMITS.H
C:\USERS\ZVOXT\DOCUMENTS\CEXGINE\CHEAT ENGINE\LUA53\LUA53\SRC\LUA_USER.H
C:\USERS\ZVOXT\DOCUMENTS\CEXGINE\CHEAT ENGINE\LUA53\LUA53\SRC\LCTYPE.H
C:\USERS\ZVOXT\DOCUMENTS\CEXGINE\CHEAT ENGINE\LUA53\LUA53\SRC\LLIMITS.H
C:\USERS\ZVOXT\DOCUMENTS\CEXGINE\CHEAT ENGINE\LUA53\LUA53\SRC\LDO.H
C:\USERS\ZVOXT\DOCUMENTS\CEXGINE\CHEAT ENGINE\LUA53\LUA53\SRC\LOBJECT.H
C:\USERS\ZVOXT\DOCUMENTS\CEXGINE\CHEAT ENGINE\LUA53\LUA53\SRC\LSTATE.H
C:\USERS\ZVOXT\DOCUMENTS\CEXGINE\CHEAT ENGINE\LUA53\LUA53\SRC\LTM.H
C:\USERS\ZVOXT\DOCUMENTS\CEXGINE\CHEAT ENGINE\LUA53\LUA53\SRC\LZIO.H
C:\USERS\ZVOXT\DOCUMENTS\CEXGINE\CHEAT ENGINE\LUA53\LUA53\SRC\LMEM.H
C:\USERS\ZVOXT\DOCUMENTS\CEXGINE\CHEAT ENGINE\LUA53\LUA53\SRC\LGC.H
C:\USERS\ZVOXT\DOCUMENTS\CEXGINE\CHEAT ENGINE\LUA53\LUA53\SRC\LLEX.H
C:\USERS\ZVOXT\DOCUMENTS\CEXGINE\CHEAT ENGINE\LUA53\LUA53\SRC\LPARSER.H
C:\USERS\ZVOXT\DOCUMENTS\CEXGINE\CHEAT ENGINE\LUA53\LUA53\SRC\LSTRING.H
C:\USERS\ZVOXT\DOCUMENTS\CEXGINE\CHEAT ENGINE\LUA53\LUA53\SRC\LTABLE.H
^C:\USERS\ZVOXT\DOCUMENTS\CEXGINE\CHEAT ENGINE\LUA53\LUA53\SRC\LIOLIB.C
C:\USERS\ZVOXT\DOCUMENTS\CEXGINE\CHEAT ENGINE\LUA53\LUA53\SRC\LPREFIX.H
C:\PROGRAM FILES (X86)\MICROSOFT VISUAL STUDIO 12.0\VC\INCLUDE\CTYPE.H
C:\PROGRAM FILES (X86)\MICROSOFT VISUAL STUDIO 12.0\VC\INCLUDE\CRTDEFS.H
C:\PROGRAM FILES (X86)\MICROSOFT VISUAL STUDIO 12.0\VC\INCLUDE\SAL.H
C:\PROGRAM FILES (X86)\MICROSOFT VISUAL STUDIO 12.0\VC\INCLUDE\CONCURRENCYSAL.H
C:\PROGRAM FILES (X86)\MICROSOFT VISUAL STUDIO 12.0\VC\INCLUDE\VADEFS.H
C:\PROGRAM FILES (X86)\MICROSOFT VISUAL STUDIO 12.0\VC\INCLUDE\ERRNO.H
C:\PROGRAM FILES (X86)\MICROSOFT VISUAL STUDIO 12.0\VC\INCLUDE\LOCALE.H
C:\PROGRAM FILES (X86)\MICROSOFT VISUAL STUDIO 12.0\VC\INCLUDE\STDIO.H
C:\PROGRAM FILES (X86)\MICROSOFT VISUAL STUDIO 12.0\VC\INCLUDE\SWPRINTF.INL
C:\PROGRAM FILES (X86)\MICROSOFT VISUAL STUDIO 12.0\VC\INCLUDE\STDLIB.H
C:\PROGRAM FILES (X86)\MICROSOFT VISUAL STUDIO 12.0\VC\INCLUDE\LIMITS.H
C:\PROGRAM FILES (X86)\MICROSOFT VISUAL STUDIO 12.0\VC\INCLUDE\STRING.H
C:\USERS\ZVOXT\DOCUMENTS\CEXGINE\CHEAT ENGINE\LUA53\LUA53\SRC\LUA.H
C:\PROGRAM FILES (X86)\MICROSOFT VISUAL STUDIO 12.0\VC\INCLUDE\STDARG.H
C:\PROGRAM FILES (X86)\MICROSOFT VISUAL STUDIO 12.0\VC\INCLUDE\STDDEF.H
C:\USERS\ZVOXT\DOCUMENTS\CEXGINE\CHEAT ENGINE\LUA53\LUA53\SRC\LUACONF.H
C:\USERS\ZVOXT\DOCUMENTS\CEXGINE\CHEAT ENGINE\LUA53\LUA53\SRC\LUA_USER.H
C:\USERS\ZVOXT\DOCUMENTS\CEXGINE\CHEAT ENGINE\LUA53\LUA53\SRC\LAUXLIB.H
C:\USERS\ZVOXT\DOCUMENTS\CEXGINE\CHEAT ENGINE\LUA53\LUA53\SRC\LUALIB.H
^C:\USERS\ZVOXT\DOCUMENTS\CEXGINE\CHEAT ENGINE\LUA53\LUA53\SRC\LINIT.C
C:\USERS\ZVOXT\DOCUMENTS\CEXGINE\CHEAT ENGINE\LUA53\LUA53\SRC\LPREFIX.H
C:\PROGRAM FILES (X86)\MICROSOFT VISUAL STUDIO 12.0\VC\INCLUDE\STDDEF.H
C:\PROGRAM FILES (X86)\MICROSOFT VISUAL STUDIO 12.0\VC\INCLUDE\CRTDEFS.H
C:\PROGRAM FILES (X86)\MICROSOFT VISUAL STUDIO 12.0\VC\INCLUDE\SAL.H
C:\PROGRAM FILES (X86)\MICROSOFT VISUAL STUDIO 12.0\VC\INCLUDE\CONCURRENCYSAL.H
C:\PROGRAM FILES (X86)\MICROSOFT VISUAL STUDIO 12.0\VC\INCLUDE\VADEFS.H
C:\USERS\ZVOXT\DOCUMENTS\CEXGINE\CHEAT ENGINE\LUA53\LUA53\SRC\LUA.H
C:\PROGRAM FILES (X86)\MICROSOFT VISUAL STUDIO 12.0\VC\INCLUDE\STDARG.H
C:\USERS\ZVOXT\DOCUMENTS\CEXGINE\CHEAT ENGINE\LUA53\LUA53\SRC\LUACONF.H
C:\PROGRAM FILES (X86)\MICROSOFT VISUAL STUDIO 12.0\VC\INCLUDE\LIMITS.H
C:\USERS\ZVOXT\DOCUMENTS\CEXGINE\CHEAT ENGINE\LUA53\LUA53\SRC\LUA_USER.H
C:\USERS\ZVOXT\DOCUMENTS\CEXGINE\CHEAT ENGINE\LUA53\LUA53\SRC\LUALIB.H
C:\USERS\ZVOXT\DOCUMENTS\CEXGINE\CHEAT ENGINE\LUA53\LUA53\SRC\LAUXLIB.H
C:\PROGRAM FILES (X86)\MICROSOFT VISUAL STUDIO 12.0\VC\INCLUDE\STDIO.H
C:\PROGRAM FILES (X86)\MICROSOFT VISUAL STUDIO 12.0\VC\INCLUDE\SWPRINTF.INL
^C:\USERS\ZVOXT\DOCUMENTS\CEXGINE\CHEAT ENGINE\LUA53\LUA53\SRC\LGC.C
C:\USERS\ZVOXT\DOCUMENTS\CEXGINE\CHEAT ENGINE\LUA53\LUA53\SRC\LPREFIX.H
C:\PROGRAM FILES (X86)\MICROSOFT VISUAL STUDIO 12.0\VC\INCLUDE\STRING.H
C:\PROGRAM FILES (X86)\MICROSOFT VISUAL STUDIO 12.0\VC\INCLUDE\CRTDEFS.H
C:\PROGRAM FILES (X86)\MICROSOFT VISUAL STUDIO 12.0\VC\INCLUDE\SAL.H
C:\PROGRAM FILES (X86)\MICROSOFT VISUAL STUDIO 12.0\VC\INCLUDE\CONCURRENCYSAL.H
C:\PROGRAM FILES (X86)\MICROSOFT VISUAL STUDIO 12.0\VC\INCLUDE\VADEFS.H
C:\USERS\ZVOXT\DOCUMENTS\CEXGINE\CHEAT ENGINE\LUA53\LUA53\SRC\LUA.H
C:\PROGRAM FILES (X86)\MICROSOFT VISUAL STUDIO 12.0\VC\INCLUDE\STDARG.H
C:\PROGRAM FILES (X86)\MICROSOFT VISUAL STUDIO 12.0\VC\INCLUDE\STDDEF.H
C:\USERS\ZVOXT\DOCUMENTS\CEXGINE\CHEAT ENGINE\LUA53\LUA53\SRC\LUACONF.H
C:\PROGRAM FILES (X86)\MICROSOFT VISUAL STUDIO 12.0\VC\INCLUDE\LIMITS.H
C:\USERS\ZVOXT\DOCUMENTS\CEXGINE\CHEAT ENGINE\LUA53\LUA53\SRC\LUA_USER.H
C:\USERS\ZVOXT\DOCUMENTS\CEXGINE\CHEAT ENGINE\LUA53\LUA53\SRC\LDEBUG.H
C:\USERS\ZVOXT\DOCUMENTS\CEXGINE\CHEAT ENGINE\LUA53\LUA53\SRC\LSTATE.H
C:\USERS\ZVOXT\DOCUMENTS\CEXGINE\CHEAT ENGINE\LUA53\LUA53\SRC\LOBJECT.H
C:\USERS\ZVOXT\DOCUMENTS\CEXGINE\CHEAT ENGINE\LUA53\LUA53\SRC\LLIMITS.H
C:\USERS\ZVOXT\DOCUMENTS\CEXGINE\CHEAT ENGINE\LUA53\LUA53\SRC\LTM.H
C:\USERS\ZVOXT\DOCUMENTS\CEXGINE\CHEAT ENGINE\LUA53\LUA53\SRC\LZIO.H
C:\USERS\ZVOXT\DOCUMENTS\CEXGINE\CHEAT ENGINE\LUA53\LUA53\SRC\LMEM.H
C:\USERS\ZVOXT\DOCUMENTS\CEXGINE\CHEAT ENGINE\LUA53\LUA53\SRC\LDO.H
C:\USERS\ZVOXT\DOCUMENTS\CEXGINE\CHEAT ENGINE\LUA53\LUA53\SRC\LFUNC.H
C:\USERS\ZVOXT\DOCUMENTS\CEXGINE\CHEAT ENGINE\LUA53\LUA53\SRC\LGC.H
C:\USERS\ZVOXT\DOCUMENTS\CEXGINE\CHEAT ENGINE\LUA53\LUA53\SRC\LSTRING.H
C:\USERS\ZVOXT\DOCUMENTS\CEXGINE\CHEAT ENGINE\LUA53\LUA53\SRC\LTABLE.H
^C:\USERS\ZVOXT\DOCUMENTS\CEXGINE\CHEAT ENGINE\LUA53\LUA53\SRC\LFUNC.C
C:\USERS\ZVOXT\DOCUMENTS\CEXGINE\CHEAT ENGINE\LUA53\LUA53\SRC\LPREFIX.H
C:\PROGRAM FILES (X86)\MICROSOFT VISUAL STUDIO 12.0\VC\INCLUDE\STDDEF.H
C:\PROGRAM FILES (X86)\MICROSOFT VISUAL STUDIO 12.0\VC\INCLUDE\CRTDEFS.H
C:\PROGRAM FILES (X86)\MICROSOFT VISUAL STUDIO 12.0\VC\INCLUDE\SAL.H
C:\PROGRAM FILES (X86)\MICROSOFT VISUAL STUDIO 12.0\VC\INCLUDE\CONCURRENCYSAL.H
C:\PROGRAM FILES (X86)\MICROSOFT VISUAL STUDIO 12.0\VC\INCLUDE\VADEFS.H
C:\USERS\ZVOXT\DOCUMENTS\CEXGINE\CHEAT ENGINE\LUA53\LUA53\SRC\LUA.H
C:\PROGRAM FILES (X86)\MICROSOFT VISUAL STUDIO 12.0\VC\INCLUDE\STDARG.H
C:\USERS\ZVOXT\DOCUMENTS\CEXGINE\CHEAT ENGINE\LUA53\LUA53\SRC\LUACONF.H
C:\PROGRAM FILES (X86)\MICROSOFT VISUAL STUDIO 12.0\VC\INCLUDE\LIMITS.H
C:\USERS\ZVOXT\DOCUMENTS\CEXGINE\CHEAT ENGINE\LUA53\LUA53\SRC\LUA_USER.H
C:\USERS\ZVOXT\DOCUMENTS\CEXGINE\CHEAT ENGINE\LUA53\LUA53\SRC\LFUNC.H
C:\USERS\ZVOXT\DOCUMENTS\CEXGINE\CHEAT ENGINE\LUA53\LUA53\SRC\LOBJECT.H
C:\USERS\ZVOXT\DOCUMENTS\CEXGINE\CHEAT ENGINE\LUA53\LUA53\SRC\LLIMITS.H
C:\USERS\ZVOXT\DOCUMENTS\CEXGINE\CHEAT ENGINE\LUA53\LUA53\SRC\LGC.H
C:\USERS\ZVOXT\DOCUMENTS\CEXGINE\CHEAT ENGINE\LUA53\LUA53\SRC\LSTATE.H
C:\USERS\ZVOXT\DOCUMENTS\CEXGINE\CHEAT ENGINE\LUA53\LUA53\SRC\LTM.H
C:\USERS\ZVOXT\DOCUMENTS\CEXGINE\CHEAT ENGINE\LUA53\LUA53\SRC\LZIO.H
C:\USERS\ZVOXT\DOCUMENTS\CEXGINE\CHEAT ENGINE\LUA53\LUA53\SRC\LMEM.H
^C:\USERS\ZVOXT\DOCUMENTS\CEXGINE\CHEAT ENGINE\LUA53\LUA53\SRC\LDUMP.C
C:\USERS\ZVOXT\DOCUMENTS\CEXGINE\CHEAT ENGINE\LUA53\LUA53\SRC\LPREFIX.H
C:\PROGRAM FILES (X86)\MICROSOFT VISUAL STUDIO 12.0\VC\INCLUDE\STDDEF.H
C:\PROGRAM FILES (X86)\MICROSOFT VISUAL STUDIO 12.0\VC\INCLUDE\CRTDEFS.H
C:\PROGRAM FILES (X86)\MICROSOFT VISUAL STUDIO 12.0\VC\INCLUDE\SAL.H
C:\PROGRAM FILES (X86)\MICROSOFT VISUAL STUDIO 12.0\VC\INCLUDE\CONCURRENCYSAL.H
C:\PROGRAM FILES (X86)\MICROSOFT VISUAL STUDIO 12.0\VC\INCLUDE\VADEFS.H
C:\USERS\ZVOXT\DOCUMENTS\CEXGINE\CHEAT ENGINE\LUA53\LUA53\SRC\LUA.H
C:\PROGRAM FILES (X86)\MICROSOFT VISUAL STUDIO 12.0\VC\INCLUDE\STDARG.H
C:\USERS\ZVOXT\DOCUMENTS\CEXGINE\CHEAT ENGINE\LUA53\LUA53\SRC\LUACONF.H
C:\PROGRAM FILES (X86)\MICROSOFT VISUAL STUDIO 12.0\VC\INCLUDE\LIMITS.H
C:\USERS\ZVOXT\DOCUMENTS\CEXGINE\CHEAT ENGINE\LUA53\LUA53\SRC\LUA_USER.H
C:\USERS\ZVOXT\DOCUMENTS\CEXGINE\CHEAT ENGINE\LUA53\LUA53\SRC\LOBJECT.H
C:\USERS\ZVOXT\DOCUMENTS\CEXGINE\CHEAT ENGINE\LUA53\LUA53\SRC\LLIMITS.H
C:\USERS\ZVOXT\DOCUMENTS\CEXGINE\CHEAT ENGINE\LUA53\LUA53\SRC\LSTATE.H
C:\USERS\ZVOXT\DOCUMENTS\CEXGINE\CHEAT ENGINE\LUA53\LUA53\SRC\LTM.H
C:\USERS\ZVOXT\DOCUMENTS\CEXGINE\CHEAT ENGINE\LUA53\LUA53\SRC\LZIO.H
C:\USERS\ZVOXT\DOCUMENTS\CEXGINE\CHEAT ENGINE\LUA53\LUA53\SRC\LMEM.H
C:\USERS\ZVOXT\DOCUMENTS\CEXGINE\CHEAT ENGINE\LUA53\LUA53\SRC\LUNDUMP.H
^C:\USERS\ZVOXT\DOCUMENTS\CEXGINE\CHEAT ENGINE\LUA53\LUA53\SRC\LDO.C
C:\USERS\ZVOXT\DOCUMENTS\CEXGINE\CHEAT ENGINE\LUA53\LUA53\SRC\LPREFIX.H
C:\PROGRAM FILES (X86)\MICROSOFT VISUAL STUDIO 12.0\VC\INCLUDE\SETJMP.H
C:\PROGRAM FILES (X86)\MICROSOFT VISUAL STUDIO 12.0\VC\INCLUDE\CRTDEFS.H
C:\PROGRAM FILES (X86)\MICROSOFT VISUAL STUDIO 12.0\VC\INCLUDE\SAL.H
C:\PROGRAM FILES (X86)\MICROSOFT VISUAL STUDIO 12.0\VC\INCLUDE\CONCURRENCYSAL.H
C:\PROGRAM FILES (X86)\MICROSOFT VISUAL STUDIO 12.0\VC\INCLUDE\VADEFS.H
C:\PROGRAM FILES (X86)\MICROSOFT VISUAL STUDIO 12.0\VC\INCLUDE\STDLIB.H
C:\PROGRAM FILES (X86)\MICROSOFT VISUAL STUDIO 12.0\VC\INCLUDE\LIMITS.H
C:\PROGRAM FILES (X86)\MICROSOFT VISUAL STUDIO 12.0\VC\INCLUDE\STRING.H
C:\USERS\ZVOXT\DOCUMENTS\CEXGINE\CHEAT ENGINE\LUA53\LUA53\SRC\LUA.H
C:\PROGRAM FILES (X86)\MICROSOFT VISUAL STUDIO 12.0\VC\INCLUDE\STDARG.H
C:\PROGRAM FILES (X86)\MICROSOFT VISUAL STUDIO 12.0\VC\INCLUDE\STDDEF.H
C:\USERS\ZVOXT\DOCUMENTS\CEXGINE\CHEAT ENGINE\LUA53\LUA53\SRC\LUACONF.H
C:\USERS\ZVOXT\DOCUMENTS\CEXGINE\CHEAT ENGINE\LUA53\LUA53\SRC\LUA_USER.H
C:\USERS\ZVOXT\DOCUMENTS\CEXGINE\CHEAT ENGINE\LUA53\LUA53\SRC\LAPI.H
C:\USERS\ZVOXT\DOCUMENTS\CEXGINE\CHEAT ENGINE\LUA53\LUA53\SRC\LLIMITS.H
C:\USERS\ZVOXT\DOCUMENTS\CEXGINE\CHEAT ENGINE\LUA53\LUA53\SRC\LSTATE.H
C:\USERS\ZVOXT\DOCUMENTS\CEXGINE\CHEAT ENGINE\LUA53\LUA53\SRC\LOBJECT.H
C:\USERS\ZVOXT\DOCUMENTS\CEXGINE\CHEAT ENGINE\LUA53\LUA53\SRC\LTM.H
C:\USERS\ZVOXT\DOCUMENTS\CEXGINE\CHEAT ENGINE\LUA53\LUA53\SRC\LZIO.H
C:\USERS\ZVOXT\DOCUMENTS\CEXGINE\CHEAT ENGINE\LUA53\LUA53\SRC\LMEM.H
C:\USERS\ZVOXT\DOCUMENTS\CEXGINE\CHEAT ENGINE\LUA53\LUA53\SRC\LDEBUG.H
C:\USERS\ZVOXT\DOCUMENTS\CEXGINE\CHEAT ENGINE\LUA53\LUA53\SRC\LDO.H
C:\USERS\ZVOXT\DOCUMENTS\CEXGINE\CHEAT ENGINE\LUA53\LUA53\SRC\LFUNC.H
C:\USERS\ZVOXT\DOCUMENTS\CEXGINE\CHEAT ENGINE\LUA53\LUA53\SRC\LGC.H
C:\USERS\ZVOXT\DOCUMENTS\CEXGINE\CHEAT ENGINE\LUA53\LUA53\SRC\LOPCODES.H
C:\USERS\ZVOXT\DOCUMENTS\CEXGINE\CHEAT ENGINE\LUA53\LUA53\SRC\LPARSER.H
C:\USERS\ZVOXT\DOCUMENTS\CEXGINE\CHEAT ENGINE\LUA53\LUA53\SRC\LSTRING.H
C:\USERS\ZVOXT\DOCUMENTS\CEXGINE\CHEAT ENGINE\LUA53\LUA53\SRC\LTABLE.H
C:\USERS\ZVOXT\DOCUMENTS\CEXGINE\CHEAT ENGINE\LUA53\LUA53\SRC\LUNDUMP.H
C:\USERS\ZVOXT\DOCUMENTS\CEXGINE\CHEAT ENGINE\LUA53\LUA53\SRC\LVM.H
^C:\USERS\ZVOXT\DOCUMENTS\CEXGINE\CHEAT ENGINE\LUA53\LUA53\SRC\LDEBUG.C
C:\USERS\ZVOXT\DOCUMENTS\CEXGINE\CHEAT ENGINE\LUA53\LUA53\SRC\LPREFIX.H
C:\PROGRAM FILES (X86)\MICROSOFT VISUAL STUDIO 12.0\VC\INCLUDE\STDARG.H
C:\PROGRAM FILES (X86)\MICROSOFT VISUAL STUDIO 12.0\VC\INCLUDE\CRTDEFS.H
C:\PROGRAM FILES (X86)\MICROSOFT VISUAL STUDIO 12.0\VC\INCLUDE\SAL.H
C:\PROGRAM FILES (X86)\MICROSOFT VISUAL STUDIO 12.0\VC\INCLUDE\CONCURRENCYSAL.H
C:\PROGRAM FILES (X86)\MICROSOFT VISUAL STUDIO 12.0\VC\INCLUDE\VADEFS.H
C:\PROGRAM FILES (X86)\MICROSOFT VISUAL STUDIO 12.0\VC\INCLUDE\STDDEF.H
C:\PROGRAM FILES (X86)\MICROSOFT VISUAL STUDIO 12.0\VC\INCLUDE\STRING.H
C:\USERS\ZVOXT\DOCUMENTS\CEXGINE\CHEAT ENGINE\LUA53\LUA53\SRC\LUA.H
C:\USERS\ZVOXT\DOCUMENTS\CEXGINE\CHEAT ENGINE\LUA53\LUA53\SRC\LUACONF.H
C:\PROGRAM FILES (X86)\MICROSOFT VISUAL STUDIO 12.0\VC\INCLUDE\LIMITS.H
C:\USERS\ZVOXT\DOCUMENTS\CEXGINE\CHEAT ENGINE\LUA53\LUA53\SRC\LUA_USER.H
C:\USERS\ZVOXT\DOCUMENTS\CEXGINE\CHEAT ENGINE\LUA53\LUA53\SRC\LAPI.H
C:\USERS\ZVOXT\DOCUMENTS\CEXGINE\CHEAT ENGINE\LUA53\LUA53\SRC\LLIMITS.H
C:\USERS\ZVOXT\DOCUMENTS\CEXGINE\CHEAT ENGINE\LUA53\LUA53\SRC\LSTATE.H
C:\USERS\ZVOXT\DOCUMENTS\CEXGINE\CHEAT ENGINE\LUA53\LUA53\SRC\LOBJECT.H
C:\USERS\ZVOXT\DOCUMENTS\CEXGINE\CHEAT ENGINE\LUA53\LUA53\SRC\LTM.H
C:\USERS\ZVOXT\DOCUMENTS\CEXGINE\CHEAT ENGINE\LUA53\LUA53\SRC\LZIO.H
C:\USERS\ZVOXT\DOCUMENTS\CEXGINE\CHEAT ENGINE\LUA53\LUA53\SRC\LMEM.H
C:\USERS\ZVOXT\DOCUMENTS\CEXGINE\CHEAT ENGINE\LUA53\LUA53\SRC\LCODE.H
C:\USERS\ZVOXT\DOCUMENTS\CEXGINE\CHEAT ENGINE\LUA53\LUA53\SRC\LLEX.H
C:\USERS\ZVOXT\DOCUMENTS\CEXGINE\CHEAT ENGINE\LUA53\LUA53\SRC\LOPCODES.H
C:\USERS\ZVOXT\DOCUMENTS\CEXGINE\CHEAT ENGINE\LUA53\LUA53\SRC\LPARSER.H
C:\USERS\ZVOXT\DOCUMENTS\CEXGINE\CHEAT ENGINE\LUA53\LUA53\SRC\LDEBUG.H
C:\USERS\ZVOXT\DOCUMENTS\CEXGINE\CHEAT ENGINE\LUA53\LUA53\SRC\LDO.H
C:\USERS\ZVOXT\DOCUMENTS\CEXGINE\CHEAT ENGINE\LUA53\LUA53\SRC\LFUNC.H
C:\USERS\ZVOXT\DOCUMENTS\CEXGINE\CHEAT ENGINE\LUA53\LUA53\SRC\LSTRING.H
C:\USERS\ZVOXT\DOCUMENTS\CEXGINE\CHEAT ENGINE\LUA53\LUA53\SRC\LGC.H
C:\USERS\ZVOXT\DOCUMENTS\CEXGINE\CHEAT ENGINE\LUA53\LUA53\SRC\LTABLE.H
C:\USERS\ZVOXT\DOCUMENTS\CEXGINE\CHEAT ENGINE\LUA53\LUA53\SRC\LVM.H
^C:\USERS\ZVOXT\DOCUMENTS\CEXGINE\CHEAT ENGINE\LUA53\LUA53\SRC\LDBLIB.C
C:\USERS\ZVOXT\DOCUMENTS\CEXGINE\CHEAT ENGINE\LUA53\LUA53\SRC\LPREFIX.H
C:\PROGRAM FILES (X86)\MICROSOFT VISUAL STUDIO 12.0\VC\INCLUDE\STDIO.H
C:\PROGRAM FILES (X86)\MICROSOFT VISUAL STUDIO 12.0\VC\INCLUDE\CRTDEFS.H
C:\PROGRAM FILES (X86)\MICROSOFT VISUAL STUDIO 12.0\VC\INCLUDE\SAL.H
C:\PROGRAM FILES (X86)\MICROSOFT VISUAL STUDIO 12.0\VC\INCLUDE\CONCURRENCYSAL.H
C:\PROGRAM FILES (X86)\MICROSOFT VISUAL STUDIO 12.0\VC\INCLUDE\VADEFS.H
C:\PROGRAM FILES (X86)\MICROSOFT VISUAL STUDIO 12.0\VC\INCLUDE\SWPRINTF.INL
C:\PROGRAM FILES (X86)\MICROSOFT VISUAL STUDIO 12.0\VC\INCLUDE\STDLIB.H
C:\PROGRAM FILES (X86)\MICROSOFT VISUAL STUDIO 12.0\VC\INCLUDE\LIMITS.H
C:\PROGRAM FILES (X86)\MICROSOFT VISUAL STUDIO 12.0\VC\INCLUDE\STRING.H
C:\USERS\ZVOXT\DOCUMENTS\CEXGINE\CHEAT ENGINE\LUA53\LUA53\SRC\LUA.H
C:\PROGRAM FILES (X86)\MICROSOFT VISUAL STUDIO 12.0\VC\INCLUDE\STDARG.H
C:\PROGRAM FILES (X86)\MICROSOFT VISUAL STUDIO 12.0\VC\INCLUDE\STDDEF.H
C:\USERS\ZVOXT\DOCUMENTS\CEXGINE\CHEAT ENGINE\LUA53\LUA53\SRC\LUACONF.H
C:\USERS\ZVOXT\DOCUMENTS\CEXGINE\CHEAT ENGINE\LUA53\LUA53\SRC\LUA_USER.H
C:\USERS\ZVOXT\DOCUMENTS\CEXGINE\CHEAT ENGINE\LUA53\LUA53\SRC\LAUXLIB.H
C:\USERS\ZVOXT\DOCUMENTS\CEXGINE\CHEAT ENGINE\LUA53\LUA53\SRC\LUALIB.H
^C:\USERS\ZVOXT\DOCUMENTS\CEXGINE\CHEAT ENGINE\LUA53\LUA53\SRC\LCTYPE.C
C:\USERS\ZVOXT\DOCUMENTS\CEXGINE\CHEAT ENGINE\LUA53\LUA53\SRC\LPREFIX.H
C:\USERS\ZVOXT\DOCUMENTS\CEXGINE\CHEAT ENGINE\LUA53\LUA53\SRC\LCTYPE.H
C:\USERS\ZVOXT\DOCUMENTS\CEXGINE\CHEAT ENGINE\LUA53\LUA53\SRC\LUA.H
C:\PROGRAM FILES (X86)\MICROSOFT VISUAL STUDIO 12.0\VC\INCLUDE\STDARG.H
C:\PROGRAM FILES (X86)\MICROSOFT VISUAL STUDIO 12.0\VC\INCLUDE\CRTDEFS.H
C:\PROGRAM FILES (X86)\MICROSOFT VISUAL STUDIO 12.0\VC\INCLUDE\SAL.H
C:\PROGRAM FILES (X86)\MICROSOFT VISUAL STUDIO 12.0\VC\INCLUDE\CONCURRENCYSAL.H
C:\PROGRAM FILES (X86)\MICROSOFT VISUAL STUDIO 12.0\VC\INCLUDE\VADEFS.H
C:\PROGRAM FILES (X86)\MICROSOFT VISUAL STUDIO 12.0\VC\INCLUDE\STDDEF.H
C:\USERS\ZVOXT\DOCUMENTS\CEXGINE\CHEAT ENGINE\LUA53\LUA53\SRC\LUACONF.H
C:\PROGRAM FILES (X86)\MICROSOFT VISUAL STUDIO 12.0\VC\INCLUDE\LIMITS.H
C:\USERS\ZVOXT\DOCUMENTS\CEXGINE\CHEAT ENGINE\LUA53\LUA53\SRC\LUA_USER.H
C:\USERS\ZVOXT\DOCUMENTS\CEXGINE\CHEAT ENGINE\LUA53\LUA53\SRC\LLIMITS.H
^C:\USERS\ZVOXT\DOCUMENTS\CEXGINE\CHEAT ENGINE\LUA53\LUA53\SRC\LCOROLIB.C
C:\USERS\ZVOXT\DOCUMENTS\CEXGINE\CHEAT ENGINE\LUA53\LUA53\SRC\LPREFIX.H
C:\PROGRAM FILES (X86)\MICROSOFT VISUAL STUDIO 12.0\VC\INCLUDE\STDLIB.H
C:\PROGRAM FILES (X86)\MICROSOFT VISUAL STUDIO 12.0\VC\INCLUDE\CRTDEFS.H
C:\PROGRAM FILES (X86)\MICROSOFT VISUAL STUDIO 12.0\VC\INCLUDE\SAL.H
C:\PROGRAM FILES (X86)\MICROSOFT VISUAL STUDIO 12.0\VC\INCLUDE\CONCURRENCYSAL.H
C:\PROGRAM FILES (X86)\MICROSOFT VISUAL STUDIO 12.0\VC\INCLUDE\VADEFS.H
C:\PROGRAM FILES (X86)\MICROSOFT VISUAL STUDIO 12.0\VC\INCLUDE\LIMITS.H
C:\USERS\ZVOXT\DOCUMENTS\CEXGINE\CHEAT ENGINE\LUA53\LUA53\SRC\LUA.H
C:\PROGRAM FILES (X86)\MICROSOFT VISUAL STUDIO 12.0\VC\INCLUDE\STDARG.H
C:\PROGRAM FILES (X86)\MICROSOFT VISUAL STUDIO 12.0\VC\INCLUDE\STDDEF.H
C:\USERS\ZVOXT\DOCUMENTS\CEXGINE\CHEAT ENGINE\LUA53\LUA53\SRC\LUACONF.H
C:\USERS\ZVOXT\DOCUMENTS\CEXGINE\CHEAT ENGINE\LUA53\LUA53\SRC\LUA_USER.H
C:\USERS\ZVOXT\DOCUMENTS\CEXGINE\CHEAT ENGINE\LUA53\LUA53\SRC\LAUXLIB.H
C:\PROGRAM FILES (X86)\MICROSOFT VISUAL STUDIO 12.0\VC\INCLUDE\STDIO.H
C:\PROGRAM FILES (X86)\MICROSOFT VISUAL STUDIO 12.0\VC\INCLUDE\SWPRINTF.INL
C:\USERS\ZVOXT\DOCUMENTS\CEXGINE\CHEAT ENGINE\LUA53\LUA53\SRC\LUALIB.H
^C:\USERS\ZVOXT\DOCUMENTS\CEXGINE\CHEAT ENGINE\LUA53\LUA53\SRC\LCODE.C
C:\USERS\ZVOXT\DOCUMENTS\CEXGINE\CHEAT ENGINE\LUA53\LUA53\SRC\LPREFIX.H
C:\PROGRAM FILES (X86)\MICROSOFT VISUAL STUDIO 12.0\VC\INCLUDE\MATH.H
C:\PROGRAM FILES (X86)\MICROSOFT VISUAL STUDIO 12.0\VC\INCLUDE\CRTDEFS.H
C:\PROGRAM FILES (X86)\MICROSOFT VISUAL STUDIO 12.0\VC\INCLUDE\SAL.H
C:\PROGRAM FILES (X86)\MICROSOFT VISUAL STUDIO 12.0\VC\INCLUDE\CONCURRENCYSAL.H
C:\PROGRAM FILES (X86)\MICROSOFT VISUAL STUDIO 12.0\VC\INCLUDE\VADEFS.H
C:\PROGRAM FILES (X86)\MICROSOFT VISUAL STUDIO 12.0\VC\INCLUDE\STDLIB.H
C:\PROGRAM FILES (X86)\MICROSOFT VISUAL STUDIO 12.0\VC\INCLUDE\LIMITS.H
C:\USERS\ZVOXT\DOCUMENTS\CEXGINE\CHEAT ENGINE\LUA53\LUA53\SRC\LUA.H
C:\PROGRAM FILES (X86)\MICROSOFT VISUAL STUDIO 12.0\VC\INCLUDE\STDARG.H
C:\PROGRAM FILES (X86)\MICROSOFT VISUAL STUDIO 12.0\VC\INCLUDE\STDDEF.H
C:\USERS\ZVOXT\DOCUMENTS\CEXGINE\CHEAT ENGINE\LUA53\LUA53\SRC\LUACONF.H
C:\USERS\ZVOXT\DOCUMENTS\CEXGINE\CHEAT ENGINE\LUA53\LUA53\SRC\LUA_USER.H
C:\USERS\ZVOXT\DOCUMENTS\CEXGINE\CHEAT ENGINE\LUA53\LUA53\SRC\LCODE.H
C:\USERS\ZVOXT\DOCUMENTS\CEXGINE\CHEAT ENGINE\LUA53\LUA53\SRC\LLEX.H
C:\USERS\ZVOXT\DOCUMENTS\CEXGINE\CHEAT ENGINE\LUA53\LUA53\SRC\LOBJECT.H
C:\USERS\ZVOXT\DOCUMENTS\CEXGINE\CHEAT ENGINE\LUA53\LUA53\SRC\LLIMITS.H
C:\USERS\ZVOXT\DOCUMENTS\CEXGINE\CHEAT ENGINE\LUA53\LUA53\SRC\LZIO.H
C:\USERS\ZVOXT\DOCUMENTS\CEXGINE\CHEAT ENGINE\LUA53\LUA53\SRC\LMEM.H
C:\USERS\ZVOXT\DOCUMENTS\CEXGINE\CHEAT ENGINE\LUA53\LUA53\SRC\LOPCODES.H
C:\USERS\ZVOXT\DOCUMENTS\CEXGINE\CHEAT ENGINE\LUA53\LUA53\SRC\LPARSER.H
C:\USERS\ZVOXT\DOCUMENTS\CEXGINE\CHEAT ENGINE\LUA53\LUA53\SRC\LDEBUG.H
C:\USERS\ZVOXT\DOCUMENTS\CEXGINE\CHEAT ENGINE\LUA53\LUA53\SRC\LSTATE.H
C:\USERS\ZVOXT\DOCUMENTS\CEXGINE\CHEAT ENGINE\LUA53\LUA53\SRC\LTM.H
C:\USERS\ZVOXT\DOCUMENTS\CEXGINE\CHEAT ENGINE\LUA53\LUA53\SRC\LDO.H
C:\USERS\ZVOXT\DOCUMENTS\CEXGINE\CHEAT ENGINE\LUA53\LUA53\SRC\LGC.H
C:\USERS\ZVOXT\DOCUMENTS\CEXGINE\CHEAT ENGINE\LUA53\LUA53\SRC\LSTRING.H
C:\USERS\ZVOXT\DOCUMENTS\CEXGINE\CHEAT ENGINE\LUA53\LUA53\SRC\LTABLE.H
C:\USERS\ZVOXT\DOCUMENTS\CEXGINE\CHEAT ENGINE\LUA53\LUA53\SRC\LVM.H
^C:\USERS\ZVOXT\DOCUMENTS\CEXGINE\CHEAT ENGINE\LUA53\LUA53\SRC\LBITLIB.C
C:\USERS\ZVOXT\DOCUMENTS\CEXGINE\CHEAT ENGINE\LUA53\LUA53\SRC\LPREFIX.H
C:\USERS\ZVOXT\DOCUMENTS\CEXGINE\CHEAT ENGINE\LUA53\LUA53\SRC\LUA.H
C:\PROGRAM FILES (X86)\MICROSOFT VISUAL STUDIO 12.0\VC\INCLUDE\STDARG.H
C:\PROGRAM FILES (X86)\MICROSOFT VISUAL STUDIO 12.0\VC\INCLUDE\CRTDEFS.H
C:\PROGRAM FILES (X86)\MICROSOFT VISUAL STUDIO 12.0\VC\INCLUDE\SAL.H
C:\PROGRAM FILES (X86)\MICROSOFT VISUAL STUDIO 12.0\VC\INCLUDE\CONCURRENCYSAL.H
C:\PROGRAM FILES (X86)\MICROSOFT VISUAL STUDIO 12.0\VC\INCLUDE\VADEFS.H
C:\PROGRAM FILES (X86)\MICROSOFT VISUAL STUDIO 12.0\VC\INCLUDE\STDDEF.H
C:\USERS\ZVOXT\DOCUMENTS\CEXGINE\CHEAT ENGINE\LUA53\LUA53\SRC\LUACONF.H
C:\PROGRAM FILES (X86)\MICROSOFT VISUAL STUDIO 12.0\VC\INCLUDE\LIMITS.H
C:\USERS\ZVOXT\DOCUMENTS\CEXGINE\CHEAT ENGINE\LUA53\LUA53\SRC\LUA_USER.H
C:\USERS\ZVOXT\DOCUMENTS\CEXGINE\CHEAT ENGINE\LUA53\LUA53\SRC\LAUXLIB.H
C:\PROGRAM FILES (X86)\MICROSOFT VISUAL STUDIO 12.0\VC\INCLUDE\STDIO.H
C:\PROGRAM FILES (X86)\MICROSOFT VISUAL STUDIO 12.0\VC\INCLUDE\SWPRINTF.INL
C:\USERS\ZVOXT\DOCUMENTS\CEXGINE\CHEAT ENGINE\LUA53\LUA53\SRC\LUALIB.H
^C:\USERS\ZVOXT\DOCUMENTS\CEXGINE\CHEAT ENGINE\LUA53\LUA53\SRC\LBASELIB.C
C:\USERS\ZVOXT\DOCUMENTS\CEXGINE\CHEAT ENGINE\LUA53\LUA53\SRC\LPREFIX.H
C:\PROGRAM FILES (X86)\MICROSOFT VISUAL STUDIO 12.0\VC\INCLUDE\CTYPE.H
C:\PROGRAM FILES (X86)\MICROSOFT VISUAL STUDIO 12.0\VC\INCLUDE\CRTDEFS.H
C:\PROGRAM FILES (X86)\MICROSOFT VISUAL STUDIO 12.0\VC\INCLUDE\SAL.H
C:\PROGRAM FILES (X86)\MICROSOFT VISUAL STUDIO 12.0\VC\INCLUDE\CONCURRENCYSAL.H
C:\PROGRAM FILES (X86)\MICROSOFT VISUAL STUDIO 12.0\VC\INCLUDE\VADEFS.H
C:\PROGRAM FILES (X86)\MICROSOFT VISUAL STUDIO 12.0\VC\INCLUDE\STDIO.H
C:\PROGRAM FILES (X86)\MICROSOFT VISUAL STUDIO 12.0\VC\INCLUDE\SWPRINTF.INL
C:\PROGRAM FILES (X86)\MICROSOFT VISUAL STUDIO 12.0\VC\INCLUDE\STDLIB.H
C:\PROGRAM FILES (X86)\MICROSOFT VISUAL STUDIO 12.0\VC\INCLUDE\LIMITS.H
C:\PROGRAM FILES (X86)\MICROSOFT VISUAL STUDIO 12.0\VC\INCLUDE\STRING.H
C:\USERS\ZVOXT\DOCUMENTS\CEXGINE\CHEAT ENGINE\LUA53\LUA53\SRC\LUA.H
C:\PROGRAM FILES (X86)\MICROSOFT VISUAL STUDIO 12.0\VC\INCLUDE\STDARG.H
C:\PROGRAM FILES (X86)\MICROSOFT VISUAL STUDIO 12.0\VC\INCLUDE\STDDEF.H
C:\USERS\ZVOXT\DOCUMENTS\CEXGINE\CHEAT ENGINE\LUA53\LUA53\SRC\LUACONF.H
C:\USERS\ZVOXT\DOCUMENTS\CEXGINE\CHEAT ENGINE\LUA53\LUA53\SRC\LUA_USER.H
C:\USERS\ZVOXT\DOCUMENTS\CEXGINE\CHEAT ENGINE\LUA53\LUA53\SRC\LAUXLIB.H
C:\USERS\ZVOXT\DOCUMENTS\CEXGINE\CHEAT ENGINE\LUA53\LUA53\SRC\LUALIB.H
^C:\USERS\ZVOXT\DOCUMENTS\CEXGINE\CHEAT ENGINE\LUA53\LUA53\SRC\LAUXLIB.C
C:\USERS\ZVOXT\DOCUMENTS\CEXGINE\CHEAT ENGINE\LUA53\LUA53\SRC\LPREFIX.H
C:\PROGRAM FILES (X86)\MICROSOFT VISUAL STUDIO 12.0\VC\INCLUDE\ERRNO.H
C:\PROGRAM FILES (X86)\MICROSOFT VISUAL STUDIO 12.0\VC\INCLUDE\CRTDEFS.H
C:\PROGRAM FILES (X86)\MICROSOFT VISUAL STUDIO 12.0\VC\INCLUDE\SAL.H
C:\PROGRAM FILES (X86)\MICROSOFT VISUAL STUDIO 12.0\VC\INCLUDE\CONCURRENCYSAL.H
C:\PROGRAM FILES (X86)\MICROSOFT VISUAL STUDIO 12.0\VC\INCLUDE\VADEFS.H
C:\PROGRAM FILES (X86)\MICROSOFT VISUAL STUDIO 12.0\VC\INCLUDE\STDARG.H
C:\PROGRAM FILES (X86)\MICROSOFT VISUAL STUDIO 12.0\VC\INCLUDE\STDIO.H
C:\PROGRAM FILES (X86)\MICROSOFT VISUAL STUDIO 12.0\VC\INCLUDE\SWPRINTF.INL
C:\PROGRAM FILES (X86)\MICROSOFT VISUAL STUDIO 12.0\VC\INCLUDE\STDLIB.H
C:\PROGRAM FILES (X86)\MICROSOFT VISUAL STUDIO 12.0\VC\INCLUDE\LIMITS.H
C:\PROGRAM FILES (X86)\MICROSOFT VISUAL STUDIO 12.0\VC\INCLUDE\STRING.H
C:\USERS\ZVOXT\DOCUMENTS\CEXGINE\CHEAT ENGINE\LUA53\LUA53\SRC\LUA.H
C:\PROGRAM FILES (X86)\MICROSOFT VISUAL STUDIO 12.0\VC\INCLUDE\STDDEF.H
C:\USERS\ZVOXT\DOCUMENTS\CEXGINE\CHEAT ENGINE\LUA53\LUA53\SRC\LUACONF.H
C:\USERS\ZVOXT\DOCUMENTS\CEXGINE\CHEAT ENGINE\LUA53\LUA53\SRC\LUA_USER.H
C:\USERS\ZVOXT\DOCUMENTS\CEXGINE\CHEAT ENGINE\LUA53\LUA53\SRC\LAUXLIB.H
^C:\USERS\ZVOXT\DOCUMENTS\CEXGINE\CHEAT ENGINE\LUA53\LUA53\SRC\LAPI.C
C:\USERS\ZVOXT\DOCUMENTS\CEXGINE\CHEAT ENGINE\LUA53\LUA53\SRC\LPREFIX.H
C:\PROGRAM FILES (X86)\MICROSOFT VISUAL STUDIO 12.0\VC\INCLUDE\STDARG.H
C:\PROGRAM FILES (X86)\MICROSOFT VISUAL STUDIO 12.0\VC\INCLUDE\CRTDEFS.H
C:\PROGRAM FILES (X86)\MICROSOFT VISUAL STUDIO 12.0\VC\INCLUDE\SAL.H
C:\PROGRAM FILES (X86)\MICROSOFT VISUAL STUDIO 12.0\VC\INCLUDE\CONCURRENCYSAL.H
C:\PROGRAM FILES (X86)\MICROSOFT VISUAL STUDIO 12.0\VC\INCLUDE\VADEFS.H
C:\PROGRAM FILES (X86)\MICROSOFT VISUAL STUDIO 12.0\VC\INCLUDE\STRING.H
C:\USERS\ZVOXT\DOCUMENTS\CEXGINE\CHEAT ENGINE\LUA53\LUA53\SRC\LUA.H
C:\PROGRAM FILES (X86)\MICROSOFT VISUAL STUDIO 12.0\VC\INCLUDE\STDDEF.H
C:\USERS\ZVOXT\DOCUMENTS\CEXGINE\CHEAT ENGINE\LUA53\LUA53\SRC\LUACONF.H
C:\PROGRAM FILES (X86)\MICROSOFT VISUAL STUDIO 12.0\VC\INCLUDE\LIMITS.H
C:\USERS\ZVOXT\DOCUMENTS\CEXGINE\CHEAT ENGINE\LUA53\LUA53\SRC\LUA_USER.H
C:\USERS\ZVOXT\DOCUMENTS\CEXGINE\CHEAT ENGINE\LUA53\LUA53\SRC\LAPI.H
C:\USERS\ZVOXT\DOCUMENTS\CEXGINE\CHEAT ENGINE\LUA53\LUA53\SRC\LLIMITS.H
C:\USERS\ZVOXT\DOCUMENTS\CEXGINE\CHEAT ENGINE\LUA53\LUA53\SRC\LSTATE.H
C:\USERS\ZVOXT\DOCUMENTS\CEXGINE\CHEAT ENGINE\LUA53\LUA53\SRC\LOBJECT.H
C:\USERS\ZVOXT\DOCUMENTS\CEXGINE\CHEAT ENGINE\LUA53\LUA53\SRC\LTM.H
C:\USERS\ZVOXT\DOCUMENTS\CEXGINE\CHEAT ENGINE\LUA53\LUA53\SRC\LZIO.H
C:\USERS\ZVOXT\DOCUMENTS\CEXGINE\CHEAT ENGINE\LUA53\LUA53\SRC\LMEM.H
C:\USERS\ZVOXT\DOCUMENTS\CEXGINE\CHEAT ENGINE\LUA53\LUA53\SRC\LDEBUG.H
C:\USERS\ZVOXT\DOCUMENTS\CEXGINE\CHEAT ENGINE\LUA53\LUA53\SRC\LDO.H
C:\USERS\ZVOXT\DOCUMENTS\CEXGINE\CHEAT ENGINE\LUA53\LUA53\SRC\LFUNC.H
C:\USERS\ZVOXT\DOCUMENTS\CEXGINE\CHEAT ENGINE\LUA53\LUA53\SRC\LGC.H
C:\USERS\ZVOXT\DOCUMENTS\CEXGINE\CHEAT ENGINE\LUA53\LUA53\SRC\LSTRING.H
C:\USERS\ZVOXT\DOCUMENTS\CEXGINE\CHEAT ENGINE\LUA53\LUA53\SRC\LTABLE.H
C:\USERS\ZVOXT\DOCUMENTS\CEXGINE\CHEAT ENGINE\LUA53\LUA53\SRC\LUNDUMP.H
C:\USERS\ZVOXT\DOCUMENTS\CEXGINE\CHEAT ENGINE\LUA53\LUA53\SRC\LVM.H
